{"actions": {"actions": [{"actionDate": "2007-11-06", "calendarNumber": {"calendar": "Senate Calendar of Business", "number": "0472"}, "sourceSystem": {"name": "Senate"}, "text": "Received in the Senate. Read twice. Placed on Senate Legislative Calendar under General Orders. Calendar No. 472.", "type": "Calendars"}, {"actionCode": "H38310", "actionDate": "2007-11-05", "actionTime": "14:26:07", "sourceSystem": {"code": 2, "name": "House floor actions"}, "text": "Motion to reconsider laid on the table Agreed to without objection.", "type": "Floor"}, {"actionCode": "H37300", "actionDate": "2007-11-05", "actionTime": "14:26:00", "sourceSystem": {"code": 2, "name": "House floor actions"}, "text": "On motion to suspend the rules and pass the bill, as amended Agreed to by voice vote. (text: CR H12459-12460)", "type": "Floor"}, {"actionCode": "8000", "actionDate": "2007-11-05", "actionTime": "14:26:00", "sourceSystem": {"code": 9, "name": "Library of Congress"}, "text": "Passed/agreed to in House: On motion to suspend the rules and pass the bill, as amended Agreed to by voice vote.(text: CR H12459-12460)", "type": "Floor"}, {"actionCode": "H8D000", "actionDate": "2007-11-05", "actionTime": "14:12:04", "sourceSystem": {"code": 2, "name": "House floor actions"}, "text": "DEBATE - The House proceeded with forty minutes of debate on H.R. 1567.", "type": "Floor"}, {"actionCode": "H30000", "actionDate": "2007-11-05", "actionTime": "14:12:01", "sourceSystem": {"code": 2, "name": "House floor actions"}, "text": "Considered under suspension of the rules. (consideration: CR H12459-12462)", "type": "Floor"}, {"actionCode": "H30300", "actionDate": "2007-11-05", "actionTime": "14:11:28", "sourceSystem": {"code": 2, "name": "House floor actions"}, "text": "Mr. Engel moved to suspend the rules and pass the bill, as amended.", "type": "Floor"}, {"actionCode": "H12410", "actionDate": "2007-10-15", "calendarNumber": {"calendar": "U00238"}, "sourceSystem": {"code": 2, "name": "House floor actions"}, "text": "Placed on the Union Calendar, Calendar No. 238.", "type": "Calendars"}, {"actionCode": "H12300", "actionDate": "2007-10-15", "committees": [{"name": "Energy and Commerce Committee", "systemCode": "hsif00", "url": "https://api.congress.gov/v3/committee/house/hsif00?format=json"}], "sourceSystem": {"code": 2, "name": "House floor actions"}, "text": "Committee on Energy and Commerce discharged.", "type": "Discharge"}, {"actionCode": "5500", "actionDate": "2007-10-15", "committees": [{"name": "Energy and Commerce Committee", "systemCode": "hsif00", "url": "https://api.congress.gov/v3/committee/house/hsif00?format=json"}], "sourceSystem": {"code": 9, "name": "Library of Congress"}, "text": "Committee on Energy and Commerce discharged.", "type": "Committee"}, {"actionCode": "H12200", "actionDate": "2007-10-15", "committees": [{"name": "Foreign Affairs Committee", "systemCode": "hsfa00", "url": "https://api.congress.gov/v3/committee/house/hsfa00?format=json"}], "sourceSystem": {"code": 2, "name": "House floor actions"}, "text": "Reported (Amended) by the Committee on Foreign Affairs. H. Rept. 110-381, Part I.", "type": "Committee"}, {"actionCode": "5000", "actionDate": "2007-10-15", "committees": [{"name": "Foreign Affairs Committee", "systemCode": "hsfa00", "url": "https://api.congress.gov/v3/committee/house/hsfa00?format=json"}], "sourceSystem": {"code": 9, "name": "Library of Congress"}, "text": "Reported (Amended) by the Committee on Foreign Affairs. H. Rept. 110-381, Part I.", "type": "Committee"}, {"actionCode": "H19000", "actionDate": "2007-07-31", "committees": [{"name": "Foreign Affairs Committee", "systemCode": "hsfa00", "url": "https://api.congress.gov/v3/committee/house/hsfa00?format=json"}], "sourceSystem": {"code": 1, "name": "House committee actions"}, "text": "Ordered to be Reported in the Nature of a Substitute by Voice Vote.", "type": "Committee"}, {"actionCode": "H15000-B", "actionDate": "2007-07-31", "committees": [{"name": "Foreign Affairs Committee", "systemCode": "hsfa00", "url": "https://api.congress.gov/v3/committee/house/hsfa00?format=json"}], "sourceSystem": {"code": 1, "name": "House committee actions"}, "text": "Committee Consideration and Mark-up Session Held.", "type": "Committee"}, {"actionCode": "H11000", "actionDate": "2007-03-20", "committees": [{"name": "Health Subcommittee", "systemCode": "hsif14", "url": "https://api.congress.gov/v3/committee/house/hsif14?format=json"}], "sourceSystem": {"code": 1, "name": "House committee actions"}, "text": "Referred to the Subcommittee on Health.", "type": "Committee"}, {"actionCode": "H11100", "actionDate": "2007-03-19", "committees": [{"name": "Energy and Commerce Committee", "systemCode": "hsif00", "url": "https://api.congress.gov/v3/committee/house/hsif00?format=json"}], "sourceSystem": {"code": 2, "name": "House floor actions"}, "text": "Referred to the Committee on Foreign Affairs, and in addition to the Committee on Energy and Commerce, for a period to be subsequently determined by the Speaker, in each case for consideration of such provisions as fall within the jurisdiction of the committee concerned.", "type": "IntroReferral"}, {"actionCode": "H11100-A", "actionDate": "2007-03-19", "sourceSystem": {"code": 9, "name": "Library of Congress"}, "text": "Referred to the Committee on Foreign Affairs, and in addition to the Committee on Energy and Commerce, for a period to be subsequently determined by the Speaker, in each case for consideration of such provisions as fall within the jurisdiction of the committee concerned.", "type": "IntroReferral"}, {"actionCode": "H11100", "actionDate": "2007-03-19", "committees": [{"name": "Foreign Affairs Committee", "systemCode": "hsfa00", "url": "https://api.congress.gov/v3/committee/house/hsfa00?format=json"}], "sourceSystem": {"code": 2, "name": "House floor actions"}, "text": "Referred to the Committee on Foreign Affairs, and in addition to the Committee on Energy and Commerce, for a period to be subsequently determined by the Speaker, in each case for consideration of such provisions as fall within the jurisdiction of the committee concerned.", "type": "IntroReferral"}, {"actionCode": "B00100", "actionDate": "2007-03-19", "sourceSystem": {"code": 9, "name": "Library of Congress"}, "text": "Sponsor introductory remarks on measure. (CR E579)", "type": "IntroReferral"}, {"actionCode": "Intro-H", "actionDate": "2007-03-19", "sourceSystem": {"code": 9, "name": "Library of Congress"}, "text": "Introduced in House", "type": "IntroReferral"}], "pagination": {"count": 21, "next": "https://api.congress.gov/v3/bill/110/hr/1567/actions?offset=20&limit=20&format=json"}, "request": {"billNumber": "1567", "billType": "hr", "billUrl": "https://api.congress.gov/v3/bill/110/hr/1567?format=json", "congress": "110", "contentType": "application/json", "format": "json"}}, "cosponsors": {"cosponsors": [{"bioguideId": "W000789", "district": 1, "firstName": "HEATHER", "fullName": "Rep. Wilson, Heather [R-NM-1]", "isOriginalCosponsor": true, "lastName": "WILSON", "party": "R", "sponsorshipDate": "2007-03-19", "state": "NM", "url": "https://api.congress.gov/v3/member/W000789?format=json"}, {"bioguideId": "S000510", "district": 9, "firstName": "ADAM", "fullName": "Rep. Smith, Adam [D-WA-9]", "isOriginalCosponsor": true, "lastName": "SMITH", "party": "D", "sponsorshipDate": "2007-03-19", "state": "WA", "url": "https://api.congress.gov/v3/member/S000510?format=json"}, {"bioguideId": "P000149", "district": 10, "firstName": "DONALD", "fullName": "Rep. Payne, Donald M. [D-NJ-10]", "isOriginalCosponsor": true, "lastName": "PAYNE", "middleName": "M.", "party": "D", "sponsorshipDate": "2007-03-19", "state": "NJ", "url": "https://api.congress.gov/v3/member/P000149?format=json"}, {"bioguideId": "M000404", "district": 7, "firstName": "JIM", "fullName": "Rep. McDermott, Jim [D-WA-7]", "isOriginalCosponsor": false, "lastName": "MCDERMOTT", "party": "D", "sponsorshipDate": "2007-03-21", "state": "WA", "url": "https://api.congress.gov/v3/member/M000404?format=json"}, {"bioguideId": "H001032", "district": 12, "firstName": "RUSH", "fullName": "Rep. Holt, Rush [D-NJ-12]", "isOriginalCosponsor": false, "lastName": "HOLT", "middleName": "D.", "party": "D", "sponsorshipDate": "2007-03-21", "state": "NJ", "url": "https://api.congress.gov/v3/member/H001032?format=json"}, {"bioguideId": "W000215", "district": 30, "firstName": "HENRY", "fullName": "Rep. Waxman, Henry A. [D-CA-30]", "isOriginalCosponsor": false, "lastName": "WAXMAN", "middleName": "A.", "party": "D", "sponsorshipDate": "2007-03-23", "state": "CA", "url": "https://api.congress.gov/v3/member/W000215?format=json"}, {"bioguideId": "R000578", "district": 8, "firstName": "David", "fullName": "Rep. Reichert, David G. [R-WA-8]", "isOriginalCosponsor": false, "lastName": "Reichert", "middleName": "G.", "party": "R", "sponsorshipDate": "2007-03-29", "state": "WA", "url": "https://api.congress.gov/v3/member/R000578?format=json"}, {"bioguideId": "M001143", "district": 4, "firstName": "BETTY", "fullName": "Rep. McCollum, Betty [D-MN-4]", "isOriginalCosponsor": false, "lastName": "MCCOLLUM", "party": "D", "sponsorshipDate": "2007-04-17", "state": "MN", "url": "https://api.congress.gov/v3/member/M001143?format=json"}, {"bioguideId": "L000551", "district": 9, "firstName": "BARBARA", "fullName": "Rep. Lee, Barbara [D-CA-9]", "isOriginalCosponsor": false, "lastName": "LEE", "party": "D", "sponsorshipDate": "2007-04-17", "state": "CA", "url": "https://api.congress.gov/v3/member/L000551?format=json"}, {"bioguideId": "C001036", "district": 23, "firstName": "LOIS", "fullName": "Rep. Capps, Lois [D-CA-23]", "isOriginalCosponsor": false, "lastName": "CAPPS", "party": "D", "sponsorshipDate": "2007-04-17", "state": "CA", "url": "https://api.congress.gov/v3/member/C001036?format=json"}, {"bioguideId": "E000215", "district": 14, "firstName": "ANNA", "fullName": "Rep. Eshoo, Anna G. [D-CA-14]", "isOriginalCosponsor": false, "lastName": "ESHOO", "middleName": "G.", "party": "D", "sponsorshipDate": "2007-04-17", "state": "CA", "url": "https://api.congress.gov/v3/member/E000215?format=json"}, {"bioguideId": "C000714", "district": 14, "firstName": "JOHN", "fullName": "Rep. Conyers, John, Jr. [D-MI-14]", "isOriginalCosponsor": false, "lastName": "CONYERS", "party": "D", "sponsorshipDate": "2007-04-17", "state": "MI", "url": "https://api.congress.gov/v3/member/C000714?format=json"}, {"bioguideId": "M001147", "district": 11, "firstName": "Thaddeus", "fullName": "Rep. McCotter, Thaddeus G. [R-MI-11]", "isOriginalCosponsor": false, "lastName": "McCotter", "middleName": "G.", "party": "R", "sponsorshipDate": "2007-04-17", "state": "MI", "url": "https://api.congress.gov/v3/member/M001147?format=json"}, {"bioguideId": "J000288", "district": 4, "firstName": "Henry", "fullName": "Rep. Johnson, Henry C. \"Hank,\" Jr. [D-GA-4]", "isOriginalCosponsor": false, "lastName": "Johnson", "middleName": "C. \"Hank\"", "party": "D", "sponsorshipDate": "2007-04-17", "state": "GA", "url": "https://api.congress.gov/v3/member/J000288?format=json"}, {"bioguideId": "M001154", "district": 13, "firstName": "Brad", "fullName": "Rep. Miller, Brad [D-NC-13]", "isOriginalCosponsor": false, "lastName": "Miller", "party": "D", "sponsorshipDate": "2007-04-20", "state": "NC", "url": "https://api.congress.gov/v3/member/M001154?format=json"}, {"bioguideId": "S000097", "district": 3, "firstName": "H.", "fullName": "Rep. Saxton, Jim [R-NJ-3]", "isOriginalCosponsor": false, "lastName": "SAXTON", "middleName": "JAMES", "party": "R", "sponsorshipDate": "2007-04-20", "state": "NJ", "url": "https://api.congress.gov/v3/member/S000097?format=json"}, {"bioguideId": "G000410", "district": 29, "firstName": "GENE", "fullName": "Rep. Green, Gene [D-TX-29]", "isOriginalCosponsor": false, "lastName": "GREEN", "party": "D", "sponsorshipDate": "2007-04-24", "state": "TX", "url": "https://api.congress.gov/v3/member/G000410?format=json"}, {"bioguideId": "W000794", "district": 33, "firstName": "Diane", "fullName": "Rep. Watson, Diane E. [D-CA-33]", "isOriginalCosponsor": false, "lastName": "Watson", "middleName": "E.", "party": "D", "sponsorshipDate": "2007-04-24", "state": "CA", "url": "https://api.congress.gov/v3/member/W000794?format=json"}, {"bioguideId": "L000287", "district": 5, "firstName": "JOHN", "fullName": "Rep. Lewis, John [D-GA-5]", "isOriginalCosponsor": false, "lastName": "LEWIS", "party": "D", "sponsorshipDate": "2007-05-02", "state": "GA", "url": "https://api.congress.gov/v3/member/L000287?format=json"}, {"bioguideId": "M001157", "district": 10, "firstName": "Michael", "fullName": "Rep. McCaul, Michael T. [R-TX-10]", "isOriginalCosponsor": false, "lastName": "McCaul", "middleName": "T.", "party": "R", "sponsorshipDate": "2007-05-02", "state": "TX", "url": "https://api.congress.gov/v3/member/M001157?format=json"}], "pagination": {"count": 106, "countIncludingWithdrawnCosponsors": 106, "next": "https://api.congress.gov/v3/bill/110/hr/1567/cosponsors?offset=20&limit=20&format=json"}, "request": {"billNumber": "1567", "billType": "hr", "billUrl": "https://api.congress.gov/v3/bill/110/hr/1567?format=json", "congress": "110", "contentType": "application/json", "format": "json"}}, "summaries": {"pagination": {"count": 3}, "request": {"billNumber": "1567", "billType": "hr", "billUrl": "https://api.congress.gov/v3/bill/110/hr/1567?format=json", "congress": "110", "contentType": "application/json", "format": "json"}, "summaries": [{"actionDate": "2007-03-19", "actionDesc": "Introduced in House", "text": " <p>Stop Tuberculosis (TB) Now Act of 2007 - Amends the Foreign Assistance Act of 1961 to require (currently, authorizes) the President to furnish assistance for tuberculosis (TB) prevention, treatment, and elimination.</p><p>Gives priority to activities described in the Stop TB Strategy (as defined by this Act). Revises related fund use provisions.</p><p>Authorizes the President, through the United States Agency for International Development (USAID), to provide increased resources to the World Health Organization (WHO) and the Stop Tuberculosis Partnership to improve the capacity of countries with high TB rates and other affected countries to implement the Stop TB Strategy and specific strategies related to addressing drug resistant tuberculosis (XDR-TB).</p><p>Authorizes appropriations for Centers for Disease Control and Prevention (CDC) TB activities.</p>", "updateDate": "2009-01-26T15:07:55Z", "versionCode": "00"}, {"actionDate": "2007-10-15", "actionDesc": "Reported to House amended, Part I", "text": " <p>Stop Tuberculosis (TB) Now Act of 2007 - Amends the Foreign Assistance Act of 1961 to require the President to furnish assistance for tuberculosis (TB) prevention, treatment, and elimination.(Current law authorizes such assistance.)</p> <p>Gives priority to activities described in the Stop TB Strategy (as defined by this Act). Revises related fund use provisions.</p> <p>Authorizes the President, through the United States Agency for International Development (USAID), to provide increased resources to the World Health Organization (WHO) and the Stop Tuberculosis Partnership to improve the capacity of countries with high TB rates and other affected countries to implement the Stop TB Strategy and specific strategies related to addressing drug resistant tuberculosis (XDR-TB).</p> <p>Authorizes: (1) FY2008-FY2009 appropriations for the President to carry activities to combat tuberculosis; and (2) set-asides from such amounts for global tuberculosis activities by the Centers for Disease Control and Prevention (CDC).</p>", "updateDate": "2007-11-14T17:02:33Z", "versionCode": "18"}, {"actionDate": "2007-11-05", "actionDesc": "Passed House amended", "text": " <p><b>(This measure has not been amended since it was reported to the House on October 15, 2007. The summary of that version is repeated here.)</b></p> <p>Stop Tuberculosis (TB) Now Act of 2007 - Amends the Foreign Assistance Act of 1961 to require the President to furnish assistance for tuberculosis (TB) prevention, treatment, and elimination.(Current law authorizes such assistance.)</p> <p>Gives priority to activities described in the Stop TB Strategy (as defined by this Act). Revises related fund use provisions.</p> <p>Authorizes the President, through the United States Agency for International Development (USAID), to provide increased resources to the World Health Organization (WHO) and the Stop Tuberculosis Partnership to improve the capacity of countries with high TB rates and other affected countries to implement the Stop TB Strategy and specific strategies related to addressing drug resistant tuberculosis (XDR-TB).</p> <p>Authorizes: (1) FY2008-FY2009 appropriations for the President to carry activities to combat tuberculosis; and (2) set-asides from such amounts for global tuberculosis activities by the Centers for Disease Control and Prevention (CDC).</p>", "updateDate": "2007-11-20T21:51:54Z", "versionCode": "36"}]}, "titles": {"pagination": {"count": 5}, "request": {"billNumber": "1567", "billType": "hr", "billUrl": "https://api.congress.gov/v3/bill/110/hr/1567?format=json", "congress": "110", "contentType": "application/json", "format": "json"}, "titles": [{"title": "Stop Tuberculosis (TB) Now Act of 2007", "titleType": "Display Title", "titleTypeCode": 45, "updateDate": "2025-01-02T16:23:20Z"}, {"billTextVersionCode": "IH", "billTextVersionName": "Introduced in House", "title": "To amend the Foreign Assistance Act of 1961 to provide increased assistance for the prevention, treatment, and control of tuberculosis, and for other purposes.", "titleType": "Official Title as Introduced", "titleTypeCode": 6, "updateDate": "2023-01-11T19:51:30Z"}, {"title": "Stop Tuberculosis (TB) Now Act of 2007", "titleType": "Short Titles as Introduced", "titleTypeCode": 14, "updateDate": "2016-10-25T20:29:31Z"}, {"chamberCode": "H", "chamberName": "House", "title": "Stop Tuberculosis (TB) Now Act of 2007", "titleType": "Short Titles as Reported to House", "titleTypeCode": 15, "updateDate": "2016-10-25T20:29:31Z"}, {"chamberCode": "H", "chamberName": "House", "title": "Stop Tuberculosis (TB) Now Act of 2007", "titleType": "Short Titles as Passed House", "titleTypeCode": 17, "updateDate": "2016-10-25T20:29:31Z"}]}, "meta": {"bill": {"actions": {"count": 21, "url": "https://api.congress.gov/v3/bill/110/hr/1567/actions?format=json"}, "cboCostEstimates": [{"description": "<p>Cost estimate for the bill as ordered reported by the House Committee on Foreign Affairs on July 31, 2007</p>", "pubDate": "2007-09-07T04:00:00Z", "title": "H.R. 1567, Stop Tuberculosis (TB) Now Act of 2007", "url": "http://www.cbo.gov/publication/19123"}, {"description": "Cost estimate for the bill as ordered reported by the House Committee on Foreign Affairs on July 31, 2007", "pubDate": "2007-09-07T04:00:00Z", "title": "H.R. 1567, Stop Tuberculosis (TB) Now Act of 2007", "url": "https://www.cbo.gov/publication/19123"}], "committeeReports": [{"citation": "H. Rept. 110-381", "url": "https://api.congress.gov/v3/committee-report/110/HRPT/381?format=json"}], "committees": {"count": 2, "url": "https://api.congress.gov/v3/bill/110/hr/1567/committees?format=json"}, "congress": 110, "cosponsors": {"count": 106, "countIncludingWithdrawnCosponsors": 106, "url": "https://api.congress.gov/v3/bill/110/hr/1567/cosponsors?format=json"}, "introducedDate": "2007-03-19", "latestAction": {"actionDate": "2007-11-06", "text": "Received in the Senate. Read twice. Placed on Senate Legislative Calendar under General Orders. Calendar No. 472."}, "number": "1567", "originChamber": "House", "originChamberCode": "H", "policyArea": {"name": "International Affairs"}, "relatedBills": {"count": 3, "url": "https://api.congress.gov/v3/bill/110/hr/1567/relatedbills?format=json"}, "sponsors": [{"bioguideId": "E000179", "district": 17, "firstName": "ELIOT", "fullName": "Rep. Engel, Eliot L. [D-NY-17]", "isByRequest": "N", "lastName": "ENGEL", "middleName": "L.", "party": "D", "state": "NY", "url": "https://api.congress.gov/v3/member/E000179?format=json"}], "subjects": {"count": 25, "url": "https://api.congress.gov/v3/bill/110/hr/1567/subjects?format=json"}, "summaries": {"count": 3, "url": "https://api.congress.gov/v3/bill/110/hr/1567/summaries?format=json"}, "textVersions": {"count": 4, "url": "https://api.congress.gov/v3/bill/110/hr/1567/text?format=json"}, "title": "Stop Tuberculosis (TB) Now Act of 2007", "titles": {"count": 5, "url": "https://api.congress.gov/v3/bill/110/hr/1567/titles?format=json"}, "type": "HR", "updateDate": "2025-01-02T16:23:20Z", "updateDateIncludingText": "2025-01-02T16:23:20Z"}, "request": {"billNumber": "1567", "billType": "hr", "congress": "110", "contentType": "application/json", "format": "json"}}}