{"actions": {"actions": [{"actionCode": "E40000", "actionDate": "2008-10-13", "sourceSystem": {"code": 2, "name": "House floor actions"}, "text": "Became Public Law No: 110-392.", "type": "President"}, {"actionCode": "36000", "actionDate": "2008-10-13", "sourceSystem": {"code": 9, "name": "Library of Congress"}, "text": "Became Public Law No: 110-392.", "type": "BecameLaw"}, {"actionCode": "E30000", "actionDate": "2008-10-13", "sourceSystem": {"code": 2, "name": "House floor actions"}, "text": "Signed by President.", "type": "President"}, {"actionCode": "36000", "actionDate": "2008-10-13", "sourceSystem": {"code": 9, "name": "Library of Congress"}, "text": "Signed by President.", "type": "BecameLaw"}, {"actionCode": "E20000", "actionDate": "2008-10-03", "sourceSystem": {"code": 2, "name": "House floor actions"}, "text": "Presented to President.", "type": "Floor"}, {"actionCode": "28000", "actionDate": "2008-10-03", "sourceSystem": {"code": 9, "name": "Library of Congress"}, "text": "Presented to President.", "type": "President"}, {"actionDate": "2008-09-27", "text": "Cleared for White House."}, {"actionDate": "2008-09-27", "sourceSystem": {"name": "Senate"}, "text": "Message on Senate action sent to the House.", "type": "Floor"}, {"actionDate": "2008-09-27", "sourceSystem": {"name": "Senate"}, "text": "Passed Senate without amendment by Unanimous Consent. (consideration: CR S10018-10019)", "type": "Floor"}, {"actionCode": "17000", "actionDate": "2008-09-27", "sourceSystem": {"code": 9, "name": "Library of Congress"}, "text": "Passed/agreed to in Senate: Passed Senate without amendment by Unanimous Consent.(consideration: CR S10018-10019)", "type": "Floor"}, {"actionDate": "2008-09-25", "sourceSystem": {"name": "Senate"}, "text": "Received in the Senate, read twice.", "type": "IntroReferral"}, {"actionCode": "H38310", "actionDate": "2008-09-24", "actionTime": "20:59:31", "sourceSystem": {"code": 2, "name": "House floor actions"}, "text": "Motion to reconsider laid on the table Agreed to without objection.", "type": "Floor"}, {"actionCode": "H37300", "actionDate": "2008-09-24", "actionTime": "20:59:26", "sourceSystem": {"code": 2, "name": "House floor actions"}, "text": "On motion to suspend the rules and pass the bill, as amended Agreed to by voice vote. (text: CR 9/23/2008 H8671-8673)", "type": "Floor"}, {"actionCode": "8000", "actionDate": "2008-09-24", "actionTime": "20:59:26", "sourceSystem": {"code": 9, "name": "Library of Congress"}, "text": "Passed/agreed to in House: On motion to suspend the rules and pass the bill, as amended Agreed to by voice vote.(text: CR 9/23/2008 H8671-8673)", "type": "Floor"}, {"actionCode": "H30000", "actionDate": "2008-09-24", "actionTime": "20:59:11", "sourceSystem": {"code": 2, "name": "House floor actions"}, "text": "Considered as unfinished business. (consideration: CR H9406)", "type": "Floor"}, {"actionCode": "H37210", "actionDate": "2008-09-23", "actionTime": "20:18:17", "sourceSystem": {"code": 2, "name": "House floor actions"}, "text": "At the conclusion of debate, the chair put the question on the motion to suspend the rules. Mr. Burgess objected to the vote on the grounds that a quorum was not present. Further proceedings on the motion were postponed. The point of no quorum was withdrawn.", "type": "Floor"}, {"actionCode": "H8D000", "actionDate": "2008-09-23", "actionTime": "20:14:16", "sourceSystem": {"code": 2, "name": "House floor actions"}, "text": "DEBATE - The House proceeded with forty minutes of debate on H.R. 1532.", "type": "Floor"}, {"actionCode": "H30000", "actionDate": "2008-09-23", "actionTime": "20:14:15", "sourceSystem": {"code": 2, "name": "House floor actions"}, "text": "Considered under suspension of the rules. (consideration: CR H8671-8674)", "type": "Floor"}, {"actionCode": "H30300", "actionDate": "2008-09-23", "actionTime": "20:14:04", "sourceSystem": {"code": 2, "name": "House floor actions"}, "text": "Mr. Pallone moved to suspend the rules and pass the bill, as amended.", "type": "Floor"}, {"actionCode": "H12410", "actionDate": "2008-09-23", "calendarNumber": {"calendar": "U00569"}, "sourceSystem": {"code": 2, "name": "House floor actions"}, "text": "Placed on the Union Calendar, Calendar No. 569.", "type": "Calendars"}], "pagination": {"count": 28, "next": "https://api.congress.gov/v3/bill/110/hr/1532/actions?offset=20&limit=20&format=json"}, "request": {"billNumber": "1532", "billType": "hr", "billUrl": "https://api.congress.gov/v3/bill/110/hr/1532?format=json", "congress": "110", "contentType": "application/json", "format": "json"}}, "cosponsors": {"cosponsors": [{"bioguideId": "W000789", "district": 1, "firstName": "HEATHER", "fullName": "Rep. Wilson, Heather [R-NM-1]", "isOriginalCosponsor": true, "lastName": "WILSON", "party": "R", "sponsorshipDate": "2007-03-15", "state": "NM", "url": "https://api.congress.gov/v3/member/W000789?format=json"}, {"bioguideId": "B001230", "district": 2, "firstName": "Tammy", "fullName": "Rep. Baldwin, Tammy [D-WI-2]", "isOriginalCosponsor": true, "lastName": "Baldwin", "party": "D", "sponsorshipDate": "2007-03-15", "state": "WI", "url": "https://api.congress.gov/v3/member/B001230?format=json"}, {"bioguideId": "E000179", "district": 17, "firstName": "ELIOT", "fullName": "Rep. Engel, Eliot L. [D-NY-17]", "isOriginalCosponsor": false, "lastName": "ENGEL", "middleName": "L.", "party": "D", "sponsorshipDate": "2007-03-19", "state": "NY", "url": "https://api.congress.gov/v3/member/E000179?format=json"}, {"bioguideId": "H001032", "district": 12, "firstName": "RUSH", "fullName": "Rep. Holt, Rush [D-NJ-12]", "isOriginalCosponsor": false, "lastName": "HOLT", "middleName": "D.", "party": "D", "sponsorshipDate": "2007-03-19", "state": "NJ", "url": "https://api.congress.gov/v3/member/H001032?format=json"}, {"bioguideId": "M000933", "district": 8, "firstName": "JAMES", "fullName": "Rep. Moran, James P. [D-VA-8]", "isOriginalCosponsor": false, "lastName": "MORAN", "middleName": "P.", "party": "D", "sponsorshipDate": "2007-03-21", "state": "VA", "url": "https://api.congress.gov/v3/member/M000933?format=json"}, {"bioguideId": "W000215", "district": 30, "firstName": "HENRY", "fullName": "Rep. Waxman, Henry A. [D-CA-30]", "isOriginalCosponsor": false, "lastName": "WAXMAN", "middleName": "A.", "party": "D", "sponsorshipDate": "2007-03-23", "state": "CA", "url": "https://api.congress.gov/v3/member/W000215?format=json"}, {"bioguideId": "M001143", "district": 4, "firstName": "BETTY", "fullName": "Rep. McCollum, Betty [D-MN-4]", "isOriginalCosponsor": false, "lastName": "MCCOLLUM", "party": "D", "sponsorshipDate": "2007-03-23", "state": "MN", "url": "https://api.congress.gov/v3/member/M001143?format=json"}, {"bioguideId": "C001036", "district": 23, "firstName": "LOIS", "fullName": "Rep. Capps, Lois [D-CA-23]", "isOriginalCosponsor": false, "lastName": "CAPPS", "party": "D", "sponsorshipDate": "2007-04-17", "state": "CA", "url": "https://api.congress.gov/v3/member/C001036?format=json"}, {"bioguideId": "F000116", "district": 51, "firstName": "BOB", "fullName": "Rep. Filner, Bob [D-CA-51]", "isOriginalCosponsor": false, "lastName": "FILNER", "party": "D", "sponsorshipDate": "2007-04-17", "state": "CA", "url": "https://api.congress.gov/v3/member/F000116?format=json"}, {"bioguideId": "R000011", "district": 3, "firstName": "NICK", "fullName": "Rep. Rahall, Nick J., II [D-WV-3]", "isOriginalCosponsor": false, "lastName": "RAHALL", "middleName": "J.", "party": "D", "sponsorshipDate": "2007-04-17", "state": "WV", "url": "https://api.congress.gov/v3/member/R000011?format=json"}, {"bioguideId": "D000598", "district": 53, "firstName": "SUSAN", "fullName": "Rep. Davis, Susan A. [D-CA-53]", "isOriginalCosponsor": false, "lastName": "DAVIS", "middleName": "A.", "party": "D", "sponsorshipDate": "2007-04-26", "state": "CA", "url": "https://api.congress.gov/v3/member/D000598?format=json"}, {"bioguideId": "M001160", "district": 4, "firstName": "Gwen", "fullName": "Rep. Moore, Gwen [D-WI-4]", "isOriginalCosponsor": false, "lastName": "Moore", "party": "D", "sponsorshipDate": "2007-04-26", "state": "WI", "url": "https://api.congress.gov/v3/member/M001160?format=json"}, {"bioguideId": "L000397", "district": 16, "firstName": "ZOE", "fullName": "Rep. Lofgren, Zoe [D-CA-16]", "isOriginalCosponsor": false, "lastName": "LOFGREN", "party": "D", "sponsorshipDate": "2007-04-26", "state": "CA", "url": "https://api.congress.gov/v3/member/L000397?format=json"}, {"bioguideId": "R000515", "district": 1, "firstName": "BOBBY", "fullName": "Rep. Rush, Bobby L. [D-IL-1]", "isOriginalCosponsor": false, "lastName": "RUSH", "middleName": "L.", "party": "D", "sponsorshipDate": "2007-05-07", "state": "IL", "url": "https://api.congress.gov/v3/member/R000515?format=json"}, {"bioguideId": "S000510", "district": 9, "firstName": "ADAM", "fullName": "Rep. Smith, Adam [D-WA-9]", "isOriginalCosponsor": false, "lastName": "SMITH", "party": "D", "sponsorshipDate": "2007-05-07", "state": "WA", "url": "https://api.congress.gov/v3/member/S000510?format=json"}, {"bioguideId": "A000357", "district": 1, "firstName": "THOMAS", "fullName": "Rep. Allen, Thomas H. [D-ME-1]", "isOriginalCosponsor": false, "lastName": "ALLEN", "middleName": "H.", "party": "D", "sponsorshipDate": "2007-05-09", "state": "ME", "url": "https://api.congress.gov/v3/member/A000357?format=json"}, {"bioguideId": "M000725", "district": 7, "firstName": "GEORGE", "fullName": "Rep. Miller, George [D-CA-7]", "isOriginalCosponsor": false, "lastName": "MILLER", "party": "D", "sponsorshipDate": "2007-05-09", "state": "CA", "url": "https://api.congress.gov/v3/member/M000725?format=json"}, {"bioguideId": "H000636", "district": 15, "firstName": "RUBEN", "fullName": "Rep. Hinojosa, Ruben [D-TX-15]", "isOriginalCosponsor": false, "lastName": "HINOJOSA", "party": "D", "sponsorshipDate": "2007-05-15", "state": "TX", "url": "https://api.congress.gov/v3/member/H000636?format=json"}, {"bioguideId": "P000585", "district": 19, "firstName": "TODD", "fullName": "Rep. Platts, Todd Russell [R-PA-19]", "isOriginalCosponsor": false, "lastName": "PLATTS", "middleName": "RUSSELL", "party": "R", "sponsorshipDate": "2007-05-15", "state": "PA", "url": "https://api.congress.gov/v3/member/P000585?format=json"}, {"bioguideId": "G000551", "district": 7, "firstName": "Ra\u00fal", "fullName": "Rep. Grijalva, Ra\u00fal M. [D-AZ-7]", "isOriginalCosponsor": false, "lastName": "Grijalva", "middleName": "M.", "party": "D", "sponsorshipDate": "2007-05-15", "state": "AZ", "url": "https://api.congress.gov/v3/member/G000551?format=json"}], "pagination": {"count": 58, "countIncludingWithdrawnCosponsors": 58, "next": "https://api.congress.gov/v3/bill/110/hr/1532/cosponsors?offset=20&limit=20&format=json"}, "request": {"billNumber": "1532", "billType": "hr", "billUrl": "https://api.congress.gov/v3/bill/110/hr/1532?format=json", "congress": "110", "contentType": "application/json", "format": "json"}}, "summaries": {"pagination": {"count": 2}, "request": {"billNumber": "1532", "billType": "hr", "billUrl": "https://api.congress.gov/v3/bill/110/hr/1532?format=json", "congress": "110", "contentType": "application/json", "format": "json"}, "summaries": [{"actionDate": "2007-03-15", "actionDesc": "Introduced in House", "text": " <p>Comprehensive Tuberculosis Elimination Act of 2007 - Amends the Public Health Service Act to set forth research and demonstration projections for the prevention, control, and elimination of tuberculosis that shall receive priority from the Secretary of Health and Human Services in awarding research grants for tuberculosis.</p><p>Requires the Advisory Council for the Elimination of Tuberculosis to make recommendations on the development, revision, and implementation of a national plan to eliminate tuberculosis in the United States. </p><p>Requires the Secretary, acting through the Director of the Centers for Disease Control and Prevention (CDC), to develop new tools for the elimination of tuberculosis. Requires the Federal Tuberculosis Task Force to make recommendations on the development of a national plan for the development of such tools.</p><p>Requires the Director of the National Heart, Lung, and Blood Institute to expand, intensify, and coordinate tuberculosis research and development. Allows the Director of the Institute to provide awards for: (1) the development of curricula in schools of medicine or osteopathic medicine regarding the principles and practices of preventing, managing, and controlling tuberculosis; (2) supervised study and research for clinically trained professionals who are committed to research regarding pulmonary infections and tuberculosis.</p><p>Requires the Director of the National Institute of Allergy and Infectious Diseases to conduct research activities to develop a tuberculosis vaccine.</p><p>Requires the John E. Fogarty International Center for Advanced Study in the Health Sciences to carry out an international training program regarding tuberculosis.</p><p>Requires the Secretary to seek to ensure that a portion of amounts appropriated for loan repayment for qualified health professionals conducting research is reserved for contracts with individuals to conduct tuberculosis research.</p>", "updateDate": "2007-06-04T15:41:09Z", "versionCode": "00"}, {"actionDate": "2008-10-13", "actionDesc": "Public Law", "text": " <p>Comprehensive Tuberculosis Elimination Act of 2008 - <b>Title I: Department of Health and Human Services in Coordination with the Centers for Disease Control and Prevention and Other Appropriate Agencies - Subtitle A: National Strategy for Combating and Eliminating Tuberculosis</b> - (Sec. 101) Amends the Public Health Service Act to revise the grant program through which the Secretary of Health and Human Services is authorized to carry out programs with respect to the prevention, treatment, control, and elimination of tuberculosis.</p><p>Includes research on latent tuberculosis infection within such program.</p><p>Includes within such program research and development and related activities to develop new tools for the elimination of tuberculosis and new methods to enhance detection and response to tuberculosis outbreaks. Encourages the Secretary to give priority to programmatically relevant research so that new tools can be utilized in public health practice.</p><p> Includes among demonstration projects the Secretary may carry out as part of such program projects for the development of regional capabilities to prevent, control, and eliminate tuberculosis and prevent multidrug resistant and extensively drug resistant strains of tuberculosis and projects for the intensification of efforts to: (1) reduce health disparities in the incidence of tuberculosis; (2) control tuberculosis along the U.S.-Mexico border; (3) prevent, detect, and treat tuberculosis among foreign-born persons who are in the United States; and (4) prevent, detect, and treat tuberculosis in high-risk populations and settings.</p><p>Allows the Secretary, as part of such program, to develop, enhance, and expand information technologies that support tuberculosis control, including surveillance and database management systems with cross-jurisdictional capabilities.</p><p>Requires the Secretary, in awarding grants for such tuberculosis programs, to give highest priority to applicants that will contribute nonfederal funds to carry out such activities.</p><p><b>Subtitle B: Interagency Collaboration</b> - (Sec. 111) Expands the duties for the Advisory Council for the Elimination of Tuberculosis to include providing to the Secretary and other appropriate federal officials advice on: (1) coordinating the activities of the Department of Health and Human Services (HHS) and other federal agencies; (2) responding rapidly and effectively to emerging issues in tuberculosis; and (3) efficiently utilizing the federal resources involved. Requires the Council to make or update recommendations on the comprehensive plan to eliminate tuberculosis in the United States. Sets forth reporting requirements for the Council. </p><p>Requires the Federal Tuberculosis Task Force to: (1) provide to the Secretary and other appropriate federal officials advice on research into new tools; and (2) make recommendations on the development of a comprehensive plan for the creation of new tools for the elimination of tuberculosis.</p><p><b>Subtitle C: Evaluation of Public Health Authorities</b> - (Sec. 121) Requires the Secretary to: (1) report to the appropriate congressional committees on changes needed to federal and state public health authorities to address current disease containment challenges; and (2) promulgate regulations to update current interstate and foreign quarantine regulations.</p><p><b>Subtitle D: Authorization of Appropriations</b> - (Sec. 131) Authorizes appropriations for FY2009-FY2013. Requires the Secretary to allocate a portion of grant funds on the basis of a formula that takes into account the level of tuberculosis morbidity and case complexity in the respective geographic area.</p><p><b>Title II: National Institutes of Health</b> - (Sec. 201) Allows the Director of the National Institutes of Health (NIH) to expand, intensify, and coordinate research and development and related NIH activities with respect to tuberculosis. Authorizes such activities to include: (1) enhancing basic and clinical research on tuberculosis, including drug resistant tuberculosis; (2) expanding research on the relationship between tuberculosis and the human immunodeficiency virus; and (3) developing new tools for the elimination of tuberculosis, including public health interventions and methods to enhance detection and response to outbreaks of tuberculosis.</p>", "updateDate": "2008-12-22T19:26:10Z", "versionCode": "49"}]}, "titles": {"pagination": {"count": 4}, "request": {"billNumber": "1532", "billType": "hr", "billUrl": "https://api.congress.gov/v3/bill/110/hr/1532?format=json", "congress": "110", "contentType": "application/json", "format": "json"}, "titles": [{"title": "Comprehensive Tuberculosis Elimination Act of 2008", "titleType": "Display Title", "titleTypeCode": 45, "updateDate": "2025-01-02T16:22:59Z"}, {"billTextVersionCode": "IH", "billTextVersionName": "Introduced in House", "title": "To amend the Public Health Service Act with respect to making progress toward the goal of eliminating tuberculosis, and for other purposes.", "titleType": "Official Title as Introduced", "titleTypeCode": 6, "updateDate": "2023-01-11T19:51:57Z"}, {"title": "Comprehensive Tuberculosis Elimination Act of 2007", "titleType": "Short Titles as Introduced", "titleTypeCode": 14, "updateDate": "2016-10-25T20:29:23Z"}, {"title": "Comprehensive Tuberculosis Elimination Act of 2008", "titleType": "Short Titles as Enacted", "titleTypeCode": 19, "updateDate": "2016-10-25T20:29:23Z"}]}, "meta": {"bill": {"actions": {"count": 28, "url": "https://api.congress.gov/v3/bill/110/hr/1532/actions?format=json"}, "cboCostEstimates": [{"description": "<p>Cost estimate for the bill as ordered reported by the House Committee on Energy and Commerce on September 17, 2008</p>", "pubDate": "2008-09-22T04:00:00Z", "title": "H.R. 1532, Comprehensive Tuberculosis Elimination Act of 2008", "url": "http://www.cbo.gov/publication/20262"}, {"description": "Cost estimate for the bill as ordered reported by the House Committee on Energy and Commerce on September 17, 2008", "pubDate": "2008-09-22T04:00:00Z", "title": "H.R. 1532, Comprehensive Tuberculosis Elimination Act of 2008", "url": "https://www.cbo.gov/publication/20262"}], "committeeReports": [{"citation": "H. Rept. 110-873", "url": "https://api.congress.gov/v3/committee-report/110/HRPT/873?format=json"}], "committees": {"count": 1, "url": "https://api.congress.gov/v3/bill/110/hr/1532/committees?format=json"}, "congress": 110, "cosponsors": {"count": 58, "countIncludingWithdrawnCosponsors": 58, "url": "https://api.congress.gov/v3/bill/110/hr/1532/cosponsors?format=json"}, "introducedDate": "2007-03-15", "latestAction": {"actionDate": "2008-10-13", "text": "Became Public Law No: 110-392."}, "laws": [{"number": "110-392", "type": "Public Law"}], "number": "1532", "originChamber": "House", "originChamberCode": "H", "policyArea": {"name": "Health"}, "relatedBills": {"count": 2, "url": "https://api.congress.gov/v3/bill/110/hr/1532/relatedbills?format=json"}, "sponsors": [{"bioguideId": "G000410", "district": 29, "firstName": "GENE", "fullName": "Rep. Green, Gene [D-TX-29]", "isByRequest": "N", "lastName": "GREEN", "party": "D", "state": "TX", "url": "https://api.congress.gov/v3/member/G000410?format=json"}], "subjects": {"count": 52, "url": "https://api.congress.gov/v3/bill/110/hr/1532/subjects?format=json"}, "summaries": {"count": 2, "url": "https://api.congress.gov/v3/bill/110/hr/1532/summaries?format=json"}, "textVersions": {"count": 6, "url": "https://api.congress.gov/v3/bill/110/hr/1532/text?format=json"}, "title": "Comprehensive Tuberculosis Elimination Act of 2008", "titles": {"count": 4, "url": "https://api.congress.gov/v3/bill/110/hr/1532/titles?format=json"}, "type": "HR", "updateDate": "2025-01-02T16:22:59Z", "updateDateIncludingText": "2025-01-02T16:22:59Z"}, "request": {"billNumber": "1532", "billType": "hr", "congress": "110", "contentType": "application/json", "format": "json"}}}