{"actions": {"actions": [{"actionCode": "H11100", "actionDate": "2017-10-11", "committees": [{"name": "Foreign Affairs Committee", "systemCode": "hsfa00", "url": "https://api.congress.gov/v3/committee/house/hsfa00?format=json"}], "sourceSystem": {"code": 2, "name": "House floor actions"}, "text": "Referred to the House Committee on Foreign Affairs.", "type": "IntroReferral"}, {"actionCode": "Intro-H", "actionDate": "2017-10-11", "sourceSystem": {"code": 9, "name": "Library of Congress"}, "text": "Introduced in House", "type": "IntroReferral"}, {"actionCode": "1000", "actionDate": "2017-10-11", "sourceSystem": {"code": 9, "name": "Library of Congress"}, "text": "Introduced in House", "type": "IntroReferral"}], "pagination": {"count": 3}, "request": {"billNumber": "4022", "billType": "hr", "billUrl": "https://api.congress.gov/v3/bill/115/hr/4022?format=json", "congress": "115", "contentType": "application/json", "format": "json"}}, "cosponsors": {"cosponsors": [{"bioguideId": "M001143", "district": 4, "firstName": "BETTY", "fullName": "Rep. McCollum, Betty [D-MN-4]", "isOriginalCosponsor": true, "lastName": "MCCOLLUM", "party": "D", "sponsorshipDate": "2017-10-11", "state": "MN", "url": "https://api.congress.gov/v3/member/M001143?format=json"}, {"bioguideId": "L000551", "district": 13, "firstName": "BARBARA", "fullName": "Rep. Lee, Barbara [D-CA-13]", "isOriginalCosponsor": true, "lastName": "LEE", "party": "D", "sponsorshipDate": "2017-10-11", "state": "CA", "url": "https://api.congress.gov/v3/member/L000551?format=json"}, {"bioguideId": "D000625", "district": 11, "firstName": "Daniel", "fullName": "Rep. Donovan, Daniel M., Jr. [R-NY-11]", "isOriginalCosponsor": true, "lastName": "Donovan", "middleName": "M.", "party": "R", "sponsorshipDate": "2017-10-11", "state": "NY", "url": "https://api.congress.gov/v3/member/D000625?format=json"}, {"bioguideId": "W000812", "district": 2, "firstName": "Ann", "fullName": "Rep. Wagner, Ann [R-MO-2]", "isOriginalCosponsor": false, "lastName": "Wagner", "party": "R", "sponsorshipDate": "2017-10-19", "state": "MO", "url": "https://api.congress.gov/v3/member/W000812?format=json"}, {"bioguideId": "T000468", "district": 1, "firstName": "Dina", "fullName": "Rep. Titus, Dina [D-NV-1]", "isOriginalCosponsor": false, "lastName": "Titus", "party": "D", "sponsorshipDate": "2017-10-19", "state": "NV", "url": "https://api.congress.gov/v3/member/T000468?format=json"}, {"bioguideId": "J000032", "district": 18, "firstName": "SHEILA", "fullName": "Rep. Jackson Lee, Sheila [D-TX-18]", "isOriginalCosponsor": false, "lastName": "JACKSON LEE", "party": "D", "sponsorshipDate": "2017-10-23", "state": "TX", "url": "https://api.congress.gov/v3/member/J000032?format=json"}, {"bioguideId": "C001096", "district": 0, "firstName": "Kevin", "fullName": "Rep. Cramer, Kevin [R-ND-At Large]", "isOriginalCosponsor": false, "lastName": "Cramer", "party": "R", "sponsorshipDate": "2017-10-23", "state": "ND", "url": "https://api.congress.gov/v3/member/C001096?format=json"}, {"bioguideId": "R000577", "district": 13, "firstName": "TIM", "fullName": "Rep. Ryan, Tim [D-OH-13]", "isOriginalCosponsor": false, "lastName": "RYAN", "party": "D", "sponsorshipDate": "2017-10-23", "state": "OH", "url": "https://api.congress.gov/v3/member/R000577?format=json"}, {"bioguideId": "S000510", "district": 9, "firstName": "ADAM", "fullName": "Rep. Smith, Adam [D-WA-9]", "isOriginalCosponsor": false, "lastName": "SMITH", "party": "D", "sponsorshipDate": "2017-10-23", "state": "WA", "url": "https://api.congress.gov/v3/member/S000510?format=json"}, {"bioguideId": "K000378", "district": 16, "firstName": "Adam", "fullName": "Rep. Kinzinger, Adam [R-IL-16]", "isOriginalCosponsor": false, "lastName": "Kinzinger", "party": "R", "sponsorshipDate": "2017-10-23", "state": "IL", "url": "https://api.congress.gov/v3/member/K000378?format=json"}, {"bioguideId": "M001189", "district": 6, "firstName": "Luke", "fullName": "Rep. Messer, Luke [R-IN-6]", "isOriginalCosponsor": false, "lastName": "Messer", "party": "R", "sponsorshipDate": "2017-10-23", "state": "IN", "url": "https://api.congress.gov/v3/member/M001189?format=json"}, {"bioguideId": "D000197", "district": 1, "firstName": "DIANA", "fullName": "Rep. DeGette, Diana [D-CO-1]", "isOriginalCosponsor": false, "lastName": "DEGETTE", "party": "D", "sponsorshipDate": "2017-10-23", "state": "CO", "url": "https://api.congress.gov/v3/member/D000197?format=json"}, {"bioguideId": "Y000066", "district": 3, "firstName": "David", "fullName": "Rep. Young, David [R-IA-3]", "isOriginalCosponsor": false, "lastName": "Young", "party": "R", "sponsorshipDate": "2017-10-23", "state": "IA", "url": "https://api.congress.gov/v3/member/Y000066?format=json"}, {"bioguideId": "D000624", "district": 12, "firstName": "Debbie", "fullName": "Rep. Dingell, Debbie [D-MI-12]", "isOriginalCosponsor": false, "lastName": "Dingell", "party": "D", "sponsorshipDate": "2017-10-23", "state": "MI", "url": "https://api.congress.gov/v3/member/D000624?format=json"}, {"bioguideId": "S000250", "district": 32, "firstName": "PETE", "fullName": "Rep. Sessions, Pete [R-TX-32]", "isOriginalCosponsor": false, "lastName": "SESSIONS", "party": "R", "sponsorshipDate": "2017-10-23", "state": "TX", "url": "https://api.congress.gov/v3/member/S000250?format=json"}, {"bioguideId": "L000557", "district": 1, "firstName": "JOHN", "fullName": "Rep. Larson, John B. [D-CT-1]", "isOriginalCosponsor": false, "lastName": "LARSON", "middleName": "B.", "party": "D", "sponsorshipDate": "2017-10-23", "state": "CT", "url": "https://api.congress.gov/v3/member/L000557?format=json"}, {"bioguideId": "B001295", "district": 12, "firstName": "Mike", "fullName": "Rep. Bost, Mike [R-IL-12]", "isOriginalCosponsor": false, "lastName": "Bost", "party": "R", "sponsorshipDate": "2017-10-26", "state": "IL", "url": "https://api.congress.gov/v3/member/B001295?format=json"}, {"bioguideId": "D000191", "district": 4, "firstName": "PETER", "fullName": "Rep. DeFazio, Peter A. [D-OR-4]", "isOriginalCosponsor": false, "lastName": "DEFAZIO", "middleName": "A.", "party": "D", "sponsorshipDate": "2017-10-26", "state": "OR", "url": "https://api.congress.gov/v3/member/D000191?format=json"}, {"bioguideId": "W000814", "district": 14, "firstName": "Randy", "fullName": "Rep. Weber, Randy K., Sr. [R-TX-14]", "isOriginalCosponsor": false, "lastName": "Weber", "middleName": "K.", "party": "R", "sponsorshipDate": "2017-10-26", "state": "TX", "url": "https://api.congress.gov/v3/member/W000814?format=json"}, {"bioguideId": "M001160", "district": 4, "firstName": "Gwen", "fullName": "Rep. Moore, Gwen [D-WI-4]", "isOriginalCosponsor": false, "lastName": "Moore", "party": "D", "sponsorshipDate": "2017-10-26", "state": "WI", "url": "https://api.congress.gov/v3/member/M001160?format=json"}], "pagination": {"count": 212, "countIncludingWithdrawnCosponsors": 212, "next": "https://api.congress.gov/v3/bill/115/hr/4022/cosponsors?offset=20&limit=20&format=json"}, "request": {"billNumber": "4022", "billType": "hr", "billUrl": "https://api.congress.gov/v3/bill/115/hr/4022?format=json", "congress": "115", "contentType": "application/json", "format": "json"}}, "summaries": {"pagination": {"count": 1}, "request": {"billNumber": "4022", "billType": "hr", "billUrl": "https://api.congress.gov/v3/bill/115/hr/4022?format=json", "congress": "115", "contentType": "application/json", "format": "json"}, "summaries": [{"actionDate": "2017-10-11", "actionDesc": "Introduced in House", "text": " <p><b>Reach Every Mother and Child Act of 2017 </b></p> <p>This bill directs the President to establish a five-year strategy to accelerate progress toward ending preventable child and maternal deaths within a generation and ensure healthy and productive lives for women and children.</p> <p>The U.S. Agency for International Development (USAID) shall: (1) identify target countries with the greatest need and the highest burden of preventable child and maternal deaths, and (2) designate a current USAID employee serving in the Senior Executive Service or at the level of a Deputy Assistant Administrator or higher to serve concurrently as the Senior Coordinator for Child and Maternal Survival.</p>", "updateDate": "2019-08-27T13:25:01Z", "versionCode": "00"}]}, "titles": {"pagination": {"count": 3}, "request": {"billNumber": "4022", "billType": "hr", "billUrl": "https://api.congress.gov/v3/bill/115/hr/4022?format=json", "congress": "115", "contentType": "application/json", "format": "json"}, "titles": [{"title": "To implement a strategic approach for providing foreign assistance in order to end preventable child and maternal deaths globally within a generation, and for other purposes.", "titleType": "Display Title", "titleTypeCode": 45, "updateDate": "2025-01-03T00:59:23Z"}, {"title": "Reach Every Mother and Child Act of 2017", "titleType": "Short Titles as Introduced", "titleTypeCode": 14, "updateDate": "2020-09-28T22:22:34Z"}, {"title": "To implement a strategic approach for providing foreign assistance in order to end preventable child and maternal deaths globally within a generation, and for other purposes.", "titleType": "Official Title as Introduced", "titleTypeCode": 6, "updateDate": "2020-09-28T22:22:34Z"}]}, "meta": {"bill": {"actions": {"count": 3, "url": "https://api.congress.gov/v3/bill/115/hr/4022/actions?format=json"}, "committees": {"count": 1, "url": "https://api.congress.gov/v3/bill/115/hr/4022/committees?format=json"}, "congress": 115, "constitutionalAuthorityStatementText": "<pre>[Congressional Record Volume 163, Number 163 (Wednesday, October 11, 2017)]\nFrom the Congressional Record Online through the Government Publishing Office [<a href='http://www.gpo.gov'>www.gpo.gov</a>]\nBy Mr. REICHERT:\nH.R. 4022.\nCongress has the power to enact this legislation pursuant\nto the following:\nPursuant to Clause I of Section 8 of Article I of the\nUnited States Constitution and Amendment XVI of the United\nStates Constitution, specifically clause 1 (relating to\nproviding for the general welfare of the United States) and\nclause 18 (relating to the power to make all laws necessary\nand proper for carrying out the powers vested in Congress),\nand Article IV, section 3, clause 2 (relating to the power of\nCongress to dispose of and make all needful rules and\nregulations respecting the territory or other property\nbelonging to the United States).\n[Page H7975]\n</pre>", "cosponsors": {"count": 212, "countIncludingWithdrawnCosponsors": 212, "url": "https://api.congress.gov/v3/bill/115/hr/4022/cosponsors?format=json"}, "introducedDate": "2017-10-11", "latestAction": {"actionDate": "2017-10-11", "text": "Referred to the House Committee on Foreign Affairs."}, "number": "4022", "originChamber": "House", "originChamberCode": "H", "policyArea": {"name": "International Affairs"}, "relatedBills": {"count": 1, "url": "https://api.congress.gov/v3/bill/115/hr/4022/relatedbills?format=json"}, "sponsors": [{"bioguideId": "R000578", "district": 8, "firstName": "David", "fullName": "Rep. Reichert, David G. [R-WA-8]", "isByRequest": "N", "lastName": "Reichert", "middleName": "G.", "party": "R", "state": "WA", "url": "https://api.congress.gov/v3/member/R000578?format=json"}], "subjects": {"count": 14, "url": "https://api.congress.gov/v3/bill/115/hr/4022/subjects?format=json"}, "summaries": {"count": 1, "url": "https://api.congress.gov/v3/bill/115/hr/4022/summaries?format=json"}, "textVersions": {"count": 1, "url": "https://api.congress.gov/v3/bill/115/hr/4022/text?format=json"}, "title": "To implement a strategic approach for providing foreign assistance in order to end preventable child and maternal deaths globally within a generation, and for other purposes.", "titles": {"count": 3, "url": "https://api.congress.gov/v3/bill/115/hr/4022/titles?format=json"}, "type": "HR", "updateDate": "2025-01-03T00:59:23Z", "updateDateIncludingText": "2025-01-03T00:59:23Z"}, "request": {"billNumber": "4022", "billType": "hr", "congress": "115", "contentType": "application/json", "format": "json"}}}