{"actions": {"actions": [{"actionCode": "H38310", "actionDate": "2019-12-03", "actionTime": "16:29:22", "sourceSystem": {"code": 2, "name": "House floor actions"}, "text": "Motion to reconsider laid on the table Agreed to without objection.", "type": "Floor"}, {"actionCode": "H37300", "actionDate": "2019-12-03", "actionTime": "16:29:16", "sourceSystem": {"code": 2, "name": "House floor actions"}, "text": "On motion to suspend the rules and agree to the resolution, as amended Agreed to by voice vote. (text: CR H9192)", "type": "Floor"}, {"actionCode": "8000", "actionDate": "2019-12-03", "actionTime": "16:29:16", "sourceSystem": {"code": 9, "name": "Library of Congress"}, "text": "Passed/agreed to in House: On motion to suspend the rules and agree to the resolution, as amended Agreed to by voice vote.(text: CR H9192)", "type": "Floor"}, {"actionCode": "H8D000", "actionDate": "2019-12-03", "actionTime": "16:14:59", "sourceSystem": {"code": 2, "name": "House floor actions"}, "text": "DEBATE - The House proceeded with forty minutes of debate on H. Res. 517.", "type": "Floor"}, {"actionCode": "H30000", "actionDate": "2019-12-03", "actionTime": "16:14:19", "sourceSystem": {"code": 2, "name": "House floor actions"}, "text": "Considered under suspension of the rules. (consideration: CR H9192-9194)", "type": "Floor"}, {"actionCode": "H30300", "actionDate": "2019-12-03", "actionTime": "16:09:50", "sourceSystem": {"code": 2, "name": "House floor actions"}, "text": "Mr. Sires moved to suspend the rules and agree to the resolution, as amended.", "type": "Floor"}, {"actionCode": "H19000", "actionDate": "2019-09-25", "committees": [{"name": "Foreign Affairs Committee", "systemCode": "hsfa00", "url": "https://api.congress.gov/v3/committee/house/hsfa00?format=json"}], "sourceSystem": {"code": 1, "name": "House committee actions"}, "text": "Ordered to be Reported by Unanimous Consent.", "type": "Committee"}, {"actionCode": "H15000-B", "actionDate": "2019-09-25", "committees": [{"name": "Foreign Affairs Committee", "systemCode": "hsfa00", "url": "https://api.congress.gov/v3/committee/house/hsfa00?format=json"}], "sourceSystem": {"code": 1, "name": "House committee actions"}, "text": "Committee Consideration and Mark-up Session Held.", "type": "Committee"}, {"actionCode": "H11100", "actionDate": "2019-07-24", "committees": [{"name": "Foreign Affairs Committee", "systemCode": "hsfa00", "url": "https://api.congress.gov/v3/committee/house/hsfa00?format=json"}], "sourceSystem": {"code": 2, "name": "House floor actions"}, "text": "Referred to the House Committee on Foreign Affairs.", "type": "IntroReferral"}, {"actionCode": "Intro-H", "actionDate": "2019-07-24", "sourceSystem": {"code": 9, "name": "Library of Congress"}, "text": "Introduced in House", "type": "IntroReferral"}, {"actionCode": "1000", "actionDate": "2019-07-24", "sourceSystem": {"code": 9, "name": "Library of Congress"}, "text": "Introduced in House", "type": "IntroReferral"}], "pagination": {"count": 11}, "request": {"billNumber": "517", "billType": "hres", "billUrl": "https://api.congress.gov/v3/bill/116/hres/517?format=json", "congress": "116", "contentType": "application/json", "format": "json"}}, "cosponsors": {"cosponsors": [{"bioguideId": "M001157", "district": 10, "firstName": "Michael", "fullName": "Rep. McCaul, Michael T. [R-TX-10]", "isOriginalCosponsor": true, "lastName": "McCaul", "middleName": "T.", "party": "R", "sponsorshipDate": "2019-07-24", "state": "TX", "url": "https://api.congress.gov/v3/member/M001157?format=json"}, {"bioguideId": "C001068", "district": 9, "firstName": "Steve", "fullName": "Rep. Cohen, Steve [D-TN-9]", "isOriginalCosponsor": false, "lastName": "Cohen", "party": "D", "sponsorshipDate": "2019-08-13", "state": "TN", "url": "https://api.congress.gov/v3/member/C001068?format=json"}, {"bioguideId": "F000466", "district": 1, "firstName": "Brian", "fullName": "Rep. Fitzpatrick, Brian K. [R-PA-1]", "isOriginalCosponsor": false, "lastName": "Fitzpatrick", "middleName": "K.", "party": "R", "sponsorshipDate": "2019-08-13", "state": "PA", "url": "https://api.congress.gov/v3/member/F000466?format=json"}, {"bioguideId": "E000297", "district": 13, "firstName": "Adriano", "fullName": "Rep. Espaillat, Adriano [D-NY-13]", "isOriginalCosponsor": false, "lastName": "Espaillat", "party": "D", "sponsorshipDate": "2019-08-13", "state": "NY", "url": "https://api.congress.gov/v3/member/E000297?format=json"}, {"bioguideId": "S000344", "district": 30, "firstName": "BRAD", "fullName": "Rep. Sherman, Brad [D-CA-30]", "isOriginalCosponsor": false, "lastName": "SHERMAN", "party": "D", "sponsorshipDate": "2019-08-13", "state": "CA", "url": "https://api.congress.gov/v3/member/S000344?format=json"}, {"bioguideId": "D000399", "district": 35, "firstName": "LLOYD", "fullName": "Rep. Doggett, Lloyd [D-TX-35]", "isOriginalCosponsor": false, "lastName": "DOGGETT", "party": "D", "sponsorshipDate": "2019-08-13", "state": "TX", "url": "https://api.congress.gov/v3/member/D000399?format=json"}, {"bioguideId": "T000483", "district": 6, "firstName": "David", "fullName": "Rep. Trone, David J. [D-MD-6]", "isOriginalCosponsor": false, "lastName": "Trone", "middleName": "J.", "party": "D", "sponsorshipDate": "2019-08-13", "state": "MD", "url": "https://api.congress.gov/v3/member/T000483?format=json"}, {"bioguideId": "W000826", "district": 7, "firstName": "Susan", "fullName": "Rep. Wild, Susan [D-PA-7]", "isOriginalCosponsor": false, "lastName": "Wild", "party": "D", "sponsorshipDate": "2019-08-13", "state": "PA", "url": "https://api.congress.gov/v3/member/W000826?format=json"}, {"bioguideId": "G000551", "district": 3, "firstName": "Ra\u00fal", "fullName": "Rep. Grijalva, Ra\u00fal M. [D-AZ-3]", "isOriginalCosponsor": false, "lastName": "Grijalva", "middleName": "M.", "party": "D", "sponsorshipDate": "2019-08-27", "state": "AZ", "url": "https://api.congress.gov/v3/member/G000551?format=json"}, {"bioguideId": "B000574", "district": 3, "firstName": "EARL", "fullName": "Rep. Blumenauer, Earl [D-OR-3]", "isOriginalCosponsor": false, "lastName": "BLUMENAUER", "party": "D", "sponsorshipDate": "2019-08-27", "state": "OR", "url": "https://api.congress.gov/v3/member/B000574?format=json"}, {"bioguideId": "M001207", "district": 26, "firstName": "Debbie", "fullName": "Rep. Mucarsel-Powell, Debbie [D-FL-26]", "isOriginalCosponsor": false, "lastName": "Mucarsel-Powell", "party": "D", "sponsorshipDate": "2019-08-27", "state": "FL", "url": "https://api.congress.gov/v3/member/M001207?format=json"}, {"bioguideId": "L000397", "district": 19, "firstName": "ZOE", "fullName": "Rep. Lofgren, Zoe [D-CA-19]", "isOriginalCosponsor": false, "lastName": "LOFGREN", "party": "D", "sponsorshipDate": "2019-08-27", "state": "CA", "url": "https://api.congress.gov/v3/member/L000397?format=json"}, {"bioguideId": "S001206", "district": 27, "firstName": "Donna", "fullName": "Rep. Shalala, Donna E. [D-FL-27]", "isOriginalCosponsor": false, "lastName": "Shalala", "middleName": "E.", "party": "D", "sponsorshipDate": "2019-08-27", "state": "FL", "url": "https://api.congress.gov/v3/member/S001206?format=json"}, {"bioguideId": "N000147", "district": 0, "firstName": "ELEANOR", "fullName": "Del. Norton, Eleanor Holmes [D-DC-At Large]", "isOriginalCosponsor": false, "lastName": "NORTON", "middleName": "HOLMES", "party": "D", "sponsorshipDate": "2019-08-27", "state": "DC", "url": "https://api.congress.gov/v3/member/N000147?format=json"}, {"bioguideId": "C001084", "district": 1, "firstName": "David", "fullName": "Rep. Cicilline, David N. [D-RI-1]", "isOriginalCosponsor": false, "lastName": "Cicilline", "middleName": "N.", "party": "D", "sponsorshipDate": "2019-08-27", "state": "RI", "url": "https://api.congress.gov/v3/member/C001084?format=json"}, {"bioguideId": "D000610", "district": 22, "firstName": "Theodore", "fullName": "Rep. Deutch, Theodore E. [D-FL-22]", "isOriginalCosponsor": false, "lastName": "Deutch", "middleName": "E.", "party": "D", "sponsorshipDate": "2019-08-27", "state": "FL", "url": "https://api.congress.gov/v3/member/D000610?format=json"}, {"bioguideId": "M001203", "district": 7, "firstName": "Tom", "fullName": "Rep. Malinowski, Tom [D-NJ-7]", "isOriginalCosponsor": false, "lastName": "Malinowski", "party": "D", "sponsorshipDate": "2019-08-27", "state": "NJ", "url": "https://api.congress.gov/v3/member/M001203?format=json"}, {"bioguideId": "L000591", "district": 2, "firstName": "Elaine", "fullName": "Rep. Luria, Elaine G. [D-VA-2]", "isOriginalCosponsor": false, "lastName": "Luria", "middleName": "G.", "party": "D", "sponsorshipDate": "2019-08-27", "state": "VA", "url": "https://api.congress.gov/v3/member/L000591?format=json"}, {"bioguideId": "C001059", "district": 16, "firstName": "Jim", "fullName": "Rep. Costa, Jim [D-CA-16]", "isOriginalCosponsor": false, "lastName": "Costa", "party": "D", "sponsorshipDate": "2019-08-27", "state": "CA", "url": "https://api.congress.gov/v3/member/C001059?format=json"}, {"bioguideId": "J000032", "district": 18, "firstName": "SHEILA", "fullName": "Rep. Jackson Lee, Sheila [D-TX-18]", "isOriginalCosponsor": false, "lastName": "JACKSON LEE", "party": "D", "sponsorshipDate": "2019-08-27", "state": "TX", "url": "https://api.congress.gov/v3/member/J000032?format=json"}], "pagination": {"count": 159, "countIncludingWithdrawnCosponsors": 159, "next": "https://api.congress.gov/v3/bill/116/hres/517/cosponsors?offset=20&limit=20&format=json"}, "request": {"billNumber": "517", "billType": "hres", "billUrl": "https://api.congress.gov/v3/bill/116/hres/517?format=json", "congress": "116", "contentType": "application/json", "format": "json"}}, "summaries": {"pagination": {"count": 2}, "request": {"billNumber": "517", "billType": "hres", "billUrl": "https://api.congress.gov/v3/bill/116/hres/517?format=json", "congress": "116", "contentType": "application/json", "format": "json"}, "summaries": [{"actionDate": "2019-07-24", "actionDesc": "Introduced in House", "text": " <p>This resolution commends the Global Fund to Fight AIDS and its partners for their contributions to ending the epidemics of AIDS, tuberculosis, and malaria. The resolution also affirms previous U.S. commitments to provide 33% of the fund's budget, including for the Sixth Global Fund Replenishment, as demonstrated by legislation passed by the House of Representatives.</p>", "updateDate": "2020-02-13T22:49:43Z", "versionCode": "00"}, {"actionDate": "2019-12-03", "actionDesc": "Passed House", "text": " <p>This resolution commends the Global Fund to Fight AIDS and its partners for their contributions to ending the epidemics of AIDS, tuberculosis, and malaria. The resolution also affirms previous U.S. commitments to provide 33% of the fund's budget, including for the Sixth Global Fund Replenishment, as demonstrated by legislation passed by the House of Representatives.</p>", "updateDate": "2020-06-22T16:27:49Z", "versionCode": "53"}]}, "titles": {"pagination": {"count": 2}, "request": {"billNumber": "517", "billType": "hres", "billUrl": "https://api.congress.gov/v3/bill/116/hres/517?format=json", "congress": "116", "contentType": "application/json", "format": "json"}, "titles": [{"title": "Supporting the Global Fund to fight AIDS, tuberculosis (TB), malaria, and its Sixth Replenishment.", "titleType": "Display Title", "titleTypeCode": 45, "updateDate": "2025-01-03T03:08:35Z"}, {"billTextVersionCode": "EH", "billTextVersionName": "Engrossed in House", "title": "Supporting the Global Fund to fight AIDS, tuberculosis (TB), malaria, and its Sixth Replenishment.", "titleType": "Official Title as Introduced", "titleTypeCode": 6, "updateDate": "2022-02-08T19:00:26Z"}]}, "meta": {"bill": {"actions": {"count": 11, "url": "https://api.congress.gov/v3/bill/116/hres/517/actions?format=json"}, "committees": {"count": 1, "url": "https://api.congress.gov/v3/bill/116/hres/517/committees?format=json"}, "congress": 116, "cosponsors": {"count": 159, "countIncludingWithdrawnCosponsors": 159, "url": "https://api.congress.gov/v3/bill/116/hres/517/cosponsors?format=json"}, "introducedDate": "2019-07-24", "latestAction": {"actionDate": "2019-12-03", "actionTime": "16:29:22", "text": "Motion to reconsider laid on the table Agreed to without objection."}, "number": "517", "originChamber": "House", "originChamberCode": "H", "policyArea": {"name": "International Affairs"}, "relatedBills": {"count": 1, "url": "https://api.congress.gov/v3/bill/116/hres/517/relatedbills?format=json"}, "sponsors": [{"bioguideId": "E000179", "district": 16, "firstName": "ELIOT", "fullName": "Rep. Engel, Eliot L. [D-NY-16]", "isByRequest": "N", "lastName": "ENGEL", "middleName": "L.", "party": "D", "state": "NY", "url": "https://api.congress.gov/v3/member/E000179?format=json"}], "subjects": {"count": 8, "url": "https://api.congress.gov/v3/bill/116/hres/517/subjects?format=json"}, "summaries": {"count": 2, "url": "https://api.congress.gov/v3/bill/116/hres/517/summaries?format=json"}, "textVersions": {"count": 2, "url": "https://api.congress.gov/v3/bill/116/hres/517/text?format=json"}, "title": "Supporting the Global Fund to fight AIDS, tuberculosis (TB), malaria, and its Sixth Replenishment.", "titles": {"count": 2, "url": "https://api.congress.gov/v3/bill/116/hres/517/titles?format=json"}, "type": "HRES", "updateDate": "2025-01-03T03:08:35Z", "updateDateIncludingText": "2025-01-03T03:08:35Z"}, "request": {"billNumber": "517", "billType": "hres", "congress": "116", "contentType": "application/json", "format": "json"}}}