{"actions": {"actions": [{"actionDate": "2019-12-02", "sourceSystem": {"name": "Senate"}, "text": "Resolution agreed to in Senate with amendments and with a preamble by Unanimous Consent. (consideration: CR S6790-6791; text: 12/10/2019 CR S6955)", "type": "Floor"}, {"actionCode": "17000", "actionDate": "2019-12-02", "sourceSystem": {"code": 9, "name": "Library of Congress"}, "text": "Passed/agreed to in Senate: Resolution agreed to in Senate with amendments and with a preamble by Unanimous Consent.(consideration: CR S6790-6791; text: 12/10/2019 CR S6955)", "type": "Floor"}, {"actionDate": "2019-09-26", "calendarNumber": {"calendar": "Senate Calendar of Business", "number": "0236"}, "sourceSystem": {"name": "Senate"}, "text": "Placed on Senate Legislative Calendar under General Orders. Calendar No. 236.", "type": "Calendars"}, {"actionDate": "2019-09-26", "committees": [{"name": "Foreign Relations Committee", "systemCode": "ssfr00", "url": "https://api.congress.gov/v3/committee/senate/ssfr00?format=json"}], "sourceSystem": {"name": "Senate"}, "text": "Committee on Foreign Relations. Reported by Senator Risch with amendments and with a preamble. Without written report.", "type": "Committee"}, {"actionCode": "14000", "actionDate": "2019-09-26", "committees": [{"name": "Foreign Relations Committee", "systemCode": "ssfr00", "url": "https://api.congress.gov/v3/committee/senate/ssfr00?format=json"}], "sourceSystem": {"code": 9, "name": "Library of Congress"}, "text": "Committee on Foreign Relations. Reported by Senator Risch with amendments and with a preamble. Without written report.", "type": "Committee"}, {"actionDate": "2019-09-25", "committees": [{"name": "Foreign Relations Committee", "systemCode": "ssfr00", "url": "https://api.congress.gov/v3/committee/senate/ssfr00?format=json"}], "sourceSystem": {"name": "Senate"}, "text": "Committee on Foreign Relations. Ordered to be reported with an amendment favorably.", "type": "Committee"}, {"actionDate": "2019-09-18", "committees": [{"name": "Foreign Relations Committee", "systemCode": "ssfr00", "url": "https://api.congress.gov/v3/committee/senate/ssfr00?format=json"}], "sourceSystem": {"name": "Senate"}, "text": "Referred to the Committee on Foreign Relations. (text: CR S5581)", "type": "IntroReferral"}, {"actionCode": "10000", "actionDate": "2019-09-18", "sourceSystem": {"code": 9, "name": "Library of Congress"}, "text": "Introduced in Senate", "type": "IntroReferral"}], "pagination": {"count": 8}, "request": {"billNumber": "318", "billType": "sres", "billUrl": "https://api.congress.gov/v3/bill/116/sres/318?format=json", "congress": "116", "contentType": "application/json", "format": "json"}}, "cosponsors": {"cosponsors": [{"bioguideId": "M000639", "firstName": "Robert", "fullName": "Sen. Menendez, Robert [D-NJ]", "isOriginalCosponsor": true, "lastName": "Menendez", "party": "D", "sponsorshipDate": "2019-09-18", "state": "NJ", "url": "https://api.congress.gov/v3/member/M000639?format=json"}, {"bioguideId": "I000055", "firstName": "Johnny", "fullName": "Sen. Isakson, Johnny [R-GA]", "isOriginalCosponsor": true, "lastName": "Isakson", "party": "R", "sponsorshipDate": "2019-09-18", "state": "GA", "url": "https://api.congress.gov/v3/member/I000055?format=json"}, {"bioguideId": "C001088", "firstName": "Christopher", "fullName": "Sen. Coons, Christopher A. [D-DE]", "isOriginalCosponsor": true, "lastName": "Coons", "middleName": "A.", "party": "D", "sponsorshipDate": "2019-09-18", "state": "DE", "url": "https://api.congress.gov/v3/member/C001088?format=json"}, {"bioguideId": "R000595", "firstName": "Marco", "fullName": "Sen. Rubio, Marco [R-FL]", "isOriginalCosponsor": true, "lastName": "Rubio", "party": "R", "sponsorshipDate": "2019-09-18", "state": "FL", "url": "https://api.congress.gov/v3/member/R000595?format=json"}, {"bioguideId": "C000141", "firstName": "Ben", "fullName": "Sen. Cardin, Benjamin L. [D-MD]", "isOriginalCosponsor": true, "lastName": "Cardin", "party": "D", "sponsorshipDate": "2019-09-18", "state": "MD", "url": "https://api.congress.gov/v3/member/C000141?format=json"}, {"bioguideId": "M000133", "firstName": "Edward", "fullName": "Sen. Markey, Edward J. [D-MA]", "isOriginalCosponsor": false, "lastName": "Markey", "middleName": "J.", "party": "D", "sponsorshipDate": "2019-09-19", "state": "MA", "url": "https://api.congress.gov/v3/member/M000133?format=json"}, {"bioguideId": "S001198", "firstName": "Dan", "fullName": "Sen. Sullivan, Dan [R-AK]", "isOriginalCosponsor": false, "lastName": "Sullivan", "party": "R", "sponsorshipDate": "2019-09-24", "state": "AK", "url": "https://api.congress.gov/v3/member/S001198?format=json"}, {"bioguideId": "C000127", "firstName": "Maria", "fullName": "Sen. Cantwell, Maria [D-WA]", "isOriginalCosponsor": false, "lastName": "Cantwell", "party": "D", "sponsorshipDate": "2019-09-25", "state": "WA", "url": "https://api.congress.gov/v3/member/C000127?format=json"}, {"bioguideId": "C001047", "firstName": "Shelley", "fullName": "Sen. Capito, Shelley Moore [R-WV]", "isOriginalCosponsor": false, "lastName": "Capito", "middleName": "Moore", "party": "R", "sponsorshipDate": "2019-09-25", "state": "WV", "url": "https://api.congress.gov/v3/member/C001047?format=json"}, {"bioguideId": "M001183", "firstName": "Joseph", "fullName": "Sen. Manchin, Joe, III [D-WV]", "isOriginalCosponsor": false, "lastName": "Manchin", "party": "D", "sponsorshipDate": "2019-09-26", "state": "WV", "url": "https://api.congress.gov/v3/member/M001183?format=json"}, {"bioguideId": "C001098", "firstName": "Ted", "fullName": "Sen. Cruz, Ted [R-TX]", "isOriginalCosponsor": false, "lastName": "Cruz", "party": "R", "sponsorshipDate": "2019-09-26", "state": "TX", "url": "https://api.congress.gov/v3/member/C001098?format=json"}, {"bioguideId": "Y000064", "firstName": "Todd", "fullName": "Sen. Young, Todd [R-IN]", "isOriginalCosponsor": false, "lastName": "Young", "middleName": "C.", "party": "R", "sponsorshipDate": "2019-10-15", "state": "IN", "url": "https://api.congress.gov/v3/member/Y000064?format=json"}, {"bioguideId": "B001277", "firstName": "Richard", "fullName": "Sen. Blumenthal, Richard [D-CT]", "isOriginalCosponsor": false, "lastName": "Blumenthal", "party": "D", "sponsorshipDate": "2019-10-15", "state": "CT", "url": "https://api.congress.gov/v3/member/B001277?format=json"}, {"bioguideId": "C001035", "firstName": "Susan", "fullName": "Sen. Collins, Susan M. [R-ME]", "isOriginalCosponsor": false, "lastName": "Collins", "middleName": "M.", "party": "R", "sponsorshipDate": "2019-10-15", "state": "ME", "url": "https://api.congress.gov/v3/member/C001035?format=json"}, {"bioguideId": "B001236", "firstName": "John", "fullName": "Sen. Boozman, John [R-AR]", "isOriginalCosponsor": false, "lastName": "Boozman", "party": "R", "sponsorshipDate": "2019-10-16", "state": "AR", "url": "https://api.congress.gov/v3/member/B001236?format=json"}, {"bioguideId": "W000779", "firstName": "Ron", "fullName": "Sen. Wyden, Ron [D-OR]", "isOriginalCosponsor": false, "lastName": "Wyden", "party": "D", "sponsorshipDate": "2019-10-17", "state": "OR", "url": "https://api.congress.gov/v3/member/W000779?format=json"}, {"bioguideId": "W000437", "firstName": "Roger", "fullName": "Sen. Wicker, Roger F. [R-MS]", "isOriginalCosponsor": false, "lastName": "Wicker", "middleName": "F.", "party": "R", "sponsorshipDate": "2019-10-17", "state": "MS", "url": "https://api.congress.gov/v3/member/W000437?format=json"}, {"bioguideId": "R000608", "firstName": "Jacklyn", "fullName": "Sen. Rosen, Jacky [D-NV]", "isOriginalCosponsor": false, "lastName": "Rosen", "party": "D", "sponsorshipDate": "2019-10-22", "state": "NV", "url": "https://api.congress.gov/v3/member/R000608?format=json"}, {"bioguideId": "M001111", "firstName": "Patty", "fullName": "Sen. Murray, Patty [D-WA]", "isOriginalCosponsor": false, "lastName": "Murray", "party": "D", "sponsorshipDate": "2019-10-28", "state": "WA", "url": "https://api.congress.gov/v3/member/M001111?format=json"}, {"bioguideId": "P000595", "firstName": "Gary", "fullName": "Sen. Peters, Gary C. [D-MI]", "isOriginalCosponsor": false, "lastName": "Peters", "party": "D", "sponsorshipDate": "2019-11-18", "state": "MI", "url": "https://api.congress.gov/v3/member/P000595?format=json"}], "pagination": {"count": 21, "countIncludingWithdrawnCosponsors": 21, "next": "https://api.congress.gov/v3/bill/116/sres/318/cosponsors?offset=20&limit=20&format=json"}, "request": {"billNumber": "318", "billType": "sres", "billUrl": "https://api.congress.gov/v3/bill/116/sres/318?format=json", "congress": "116", "contentType": "application/json", "format": "json"}}, "summaries": {"pagination": {"count": 3}, "request": {"billNumber": "318", "billType": "sres", "billUrl": "https://api.congress.gov/v3/bill/116/sres/318?format=json", "congress": "116", "contentType": "application/json", "format": "json"}, "summaries": [{"actionDate": "2019-09-18", "actionDesc": "Introduced in Senate", "text": " <p>This resolution commends the Global Fund to Fight AIDS and its partners for their contributions to ending the epidemics of AIDS, tuberculosis, and malaria. The resolution also affirms U.S. support to secure at least $14 billion in donor commitments for the Sixth Global Fund Replenishment.</p>", "updateDate": "2020-02-14T16:12:57Z", "versionCode": "00"}, {"actionDate": "2019-09-26", "actionDesc": "Reported to Senate", "text": " <p>This resolution commends the Global Fund to Fight AIDS and its partners for their contributions to ending the epidemics of AIDS, tuberculosis, and malaria. The resolution also affirms U.S. support to secure at least $14 billion in donor commitments for the Sixth Global Fund Replenishment.</p>", "updateDate": "2020-04-16T17:24:53Z", "versionCode": "25"}, {"actionDate": "2019-12-02", "actionDesc": "Passed Senate", "text": " <p>This resolution commends the Global Fund to Fight AIDS and its partners for their contributions to ending the epidemics of AIDS, tuberculosis, and malaria. The resolution also affirms U.S. support to secure at least $14 billion in donor commitments for the Sixth Global Fund Replenishment.</p>", "updateDate": "2020-06-22T14:44:10Z", "versionCode": "55"}]}, "titles": {"pagination": {"count": 2}, "request": {"billNumber": "318", "billType": "sres", "billUrl": "https://api.congress.gov/v3/bill/116/sres/318?format=json", "congress": "116", "contentType": "application/json", "format": "json"}, "titles": [{"title": "A resolution to support the Global Fund to fight AIDS, Tuberculosis and Malaria, and the Sixth Replenishment.", "titleType": "Display Title", "titleTypeCode": 45, "updateDate": "2025-01-03T03:11:25Z"}, {"billTextVersionCode": "IS", "billTextVersionName": "Introduced in Senate", "title": "A resolution to support the Global Fund to fight AIDS, Tuberculosis and Malaria, and the Sixth Replenishment.", "titleType": "Official Title as Introduced", "titleTypeCode": 6, "updateDate": "2021-12-29T21:57:31Z"}]}, "meta": {"bill": {"actions": {"count": 8, "url": "https://api.congress.gov/v3/bill/116/sres/318/actions?format=json"}, "committees": {"count": 1, "url": "https://api.congress.gov/v3/bill/116/sres/318/committees?format=json"}, "congress": 116, "cosponsors": {"count": 21, "countIncludingWithdrawnCosponsors": 21, "url": "https://api.congress.gov/v3/bill/116/sres/318/cosponsors?format=json"}, "introducedDate": "2019-09-18", "latestAction": {"actionDate": "2019-12-02", "text": "Resolution agreed to in Senate with amendments and with a preamble by Unanimous Consent. (consideration: CR S6790-6791; text: 12/10/2019 CR S6955)"}, "number": "318", "originChamber": "Senate", "originChamberCode": "S", "policyArea": {"name": "International Affairs"}, "relatedBills": {"count": 1, "url": "https://api.congress.gov/v3/bill/116/sres/318/relatedbills?format=json"}, "sponsors": [{"bioguideId": "R000584", "firstName": "James", "fullName": "Sen. Risch, James E. [R-ID]", "isByRequest": "N", "lastName": "Risch", "middleName": "E.", "party": "R", "state": "ID", "url": "https://api.congress.gov/v3/member/R000584?format=json"}], "subjects": {"count": 8, "url": "https://api.congress.gov/v3/bill/116/sres/318/subjects?format=json"}, "summaries": {"count": 3, "url": "https://api.congress.gov/v3/bill/116/sres/318/summaries?format=json"}, "textVersions": {"count": 3, "url": "https://api.congress.gov/v3/bill/116/sres/318/text?format=json"}, "title": "A resolution to support the Global Fund to fight AIDS, Tuberculosis and Malaria, and the Sixth Replenishment.", "titles": {"count": 2, "url": "https://api.congress.gov/v3/bill/116/sres/318/titles?format=json"}, "type": "SRES", "updateDate": "2025-01-14T19:00:46Z", "updateDateIncludingText": "2025-01-14T19:00:46Z"}, "request": {"billNumber": "318", "billType": "sres", "congress": "116", "contentType": "application/json", "format": "json"}}}