{"actions": {"actions": [{"actionCode": "H38800", "actionDate": "2020-12-07", "actionTime": "12:58:18", "sourceSystem": {"code": 2, "name": "House floor actions"}, "text": "The title of the measure was amended. Agreed to without objection.", "type": "Floor"}, {"actionCode": "H38310", "actionDate": "2020-12-07", "actionTime": "12:58:13", "sourceSystem": {"code": 2, "name": "House floor actions"}, "text": "Motion to reconsider laid on the table Agreed to without objection.", "type": "Floor"}, {"actionCode": "H37300", "actionDate": "2020-12-07", "actionTime": "12:58:06", "sourceSystem": {"code": 2, "name": "House floor actions"}, "text": "On motion to suspend the rules and agree to the resolution, as amended Agreed to by voice vote. (text: CR H6869-6870)", "type": "Floor"}, {"actionCode": "8000", "actionDate": "2020-12-07", "actionTime": "12:58:06", "sourceSystem": {"code": 9, "name": "Library of Congress"}, "text": "Passed/agreed to in House: On motion to suspend the rules and agree to the resolution, as amended Agreed to by voice vote.(text: CR H6869-6870)", "type": "Floor"}, {"actionCode": "H8D000", "actionDate": "2020-12-07", "actionTime": "12:44:28", "sourceSystem": {"code": 2, "name": "House floor actions"}, "text": "DEBATE - The House proceeded with forty minutes of debate on H. Res. 189.", "type": "Floor"}, {"actionCode": "H30000", "actionDate": "2020-12-07", "actionTime": "12:44:24", "sourceSystem": {"code": 2, "name": "House floor actions"}, "text": "Considered under suspension of the rules. (consideration: CR H6869-6872)", "type": "Floor"}, {"actionCode": "H30300", "actionDate": "2020-12-07", "actionTime": "12:42:42", "sourceSystem": {"code": 2, "name": "House floor actions"}, "text": "Mr. Engel moved to suspend the rules and agree to the resolution, as amended.", "type": "Floor"}, {"actionCode": "H19000", "actionDate": "2020-03-10", "committees": [{"name": "Agriculture Committee", "systemCode": "hsag00", "url": "https://api.congress.gov/v3/committee/house/hsag00?format=json"}], "sourceSystem": {"code": 1, "name": "House committee actions"}, "text": "Ordered to be Reported by Voice Vote.", "type": "Committee"}, {"actionCode": "H15000-B", "actionDate": "2020-03-10", "committees": [{"name": "Agriculture Committee", "systemCode": "hsag00", "url": "https://api.congress.gov/v3/committee/house/hsag00?format=json"}], "sourceSystem": {"code": 1, "name": "House committee actions"}, "text": "Committee Consideration and Mark-up Session Held.", "type": "Committee"}, {"actionCode": "H25000", "actionDate": "2020-03-10", "committees": [{"name": "Agriculture Committee", "systemCode": "hsag00", "url": "https://api.congress.gov/v3/committee/house/hsag00?format=json"}], "sourceSystem": {"code": 1, "name": "House committee actions"}, "text": "Subcommittee on Livestock and Foreign Agriculture Discharged.", "type": "Committee"}, {"actionCode": "H19000", "actionDate": "2019-10-30", "committees": [{"name": "Foreign Affairs Committee", "systemCode": "hsfa00", "url": "https://api.congress.gov/v3/committee/house/hsfa00?format=json"}], "sourceSystem": {"code": 1, "name": "House committee actions"}, "text": "Ordered to be Reported by Unanimous Consent.", "type": "Committee"}, {"actionCode": "H15000-B", "actionDate": "2019-10-30", "committees": [{"name": "Foreign Affairs Committee", "systemCode": "hsfa00", "url": "https://api.congress.gov/v3/committee/house/hsfa00?format=json"}], "sourceSystem": {"code": 1, "name": "House committee actions"}, "text": "Committee Consideration and Mark-up Session Held.", "type": "Committee"}, {"actionCode": "H11000", "actionDate": "2019-03-13", "committees": [{"name": "Livestock, Dairy, and Poultry Subcommittee", "systemCode": "hsag29", "url": "https://api.congress.gov/v3/committee/house/hsag29?format=json"}], "sourceSystem": {"code": 1, "name": "House committee actions"}, "text": "Referred to the Subcommittee on Livestock and Foreign Agriculture.", "type": "Committee"}, {"actionCode": "H11100", "actionDate": "2019-03-07", "committees": [{"name": "Agriculture Committee", "systemCode": "hsag00", "url": "https://api.congress.gov/v3/committee/house/hsag00?format=json"}], "sourceSystem": {"code": 2, "name": "House floor actions"}, "text": "Referred to the Committee on Foreign Affairs, and in addition to the Committee on Agriculture, for a period to be subsequently determined by the Speaker, in each case for consideration of such provisions as fall within the jurisdiction of the committee concerned.", "type": "IntroReferral"}, {"actionCode": "H11100", "actionDate": "2019-03-07", "committees": [{"name": "Foreign Affairs Committee", "systemCode": "hsfa00", "url": "https://api.congress.gov/v3/committee/house/hsfa00?format=json"}], "sourceSystem": {"code": 2, "name": "House floor actions"}, "text": "Referred to the Committee on Foreign Affairs, and in addition to the Committee on Agriculture, for a period to be subsequently determined by the Speaker, in each case for consideration of such provisions as fall within the jurisdiction of the committee concerned.", "type": "IntroReferral"}, {"actionCode": "Intro-H", "actionDate": "2019-03-07", "sourceSystem": {"code": 9, "name": "Library of Congress"}, "text": "Introduced in House", "type": "IntroReferral"}, {"actionCode": "1000", "actionDate": "2019-03-07", "sourceSystem": {"code": 9, "name": "Library of Congress"}, "text": "Introduced in House", "type": "IntroReferral"}], "pagination": {"count": 17}, "request": {"billNumber": "189", "billType": "hres", "billUrl": "https://api.congress.gov/v3/bill/116/hres/189?format=json", "congress": "116", "contentType": "application/json", "format": "json"}}, "cosponsors": {"cosponsors": [{"bioguideId": "M000312", "district": 2, "firstName": "JAMES", "fullName": "Rep. McGovern, James P. [D-MA-2]", "isOriginalCosponsor": true, "lastName": "MCGOVERN", "middleName": "P.", "party": "D", "sponsorshipDate": "2019-03-07", "state": "MA", "url": "https://api.congress.gov/v3/member/M000312?format=json"}, {"bioguideId": "W000824", "district": 2, "firstName": "Steve", "fullName": "Rep. Watkins, Steve [R-KS-2]", "isOriginalCosponsor": false, "lastName": "Watkins", "party": "R", "sponsorshipDate": "2019-04-02", "state": "KS", "url": "https://api.congress.gov/v3/member/W000824?format=json"}, {"bioguideId": "R000609", "district": 4, "firstName": "John", "fullName": "Rep. Rutherford, John H. [R-FL-4]", "isOriginalCosponsor": false, "lastName": "Rutherford", "middleName": "H.", "party": "R", "sponsorshipDate": "2019-04-02", "state": "FL", "url": "https://api.congress.gov/v3/member/R000609?format=json"}, {"bioguideId": "M001188", "district": 6, "firstName": "Grace", "fullName": "Rep. Meng, Grace [D-NY-6]", "isOriginalCosponsor": false, "lastName": "Meng", "party": "D", "sponsorshipDate": "2019-04-02", "state": "NY", "url": "https://api.congress.gov/v3/member/M001188?format=json"}, {"bioguideId": "L000579", "district": 47, "firstName": "Alan", "fullName": "Rep. Lowenthal, Alan S. [D-CA-47]", "isOriginalCosponsor": false, "lastName": "Lowenthal", "middleName": "S.", "party": "D", "sponsorshipDate": "2019-04-03", "state": "CA", "url": "https://api.congress.gov/v3/member/L000579?format=json"}, {"bioguideId": "F000466", "district": 1, "firstName": "Brian", "fullName": "Rep. Fitzpatrick, Brian K. [R-PA-1]", "isOriginalCosponsor": false, "lastName": "Fitzpatrick", "middleName": "K.", "party": "R", "sponsorshipDate": "2019-04-08", "state": "PA", "url": "https://api.congress.gov/v3/member/F000466?format=json"}, {"bioguideId": "W000826", "district": 7, "firstName": "Susan", "fullName": "Rep. Wild, Susan [D-PA-7]", "isOriginalCosponsor": false, "lastName": "Wild", "party": "D", "sponsorshipDate": "2019-04-25", "state": "PA", "url": "https://api.congress.gov/v3/member/W000826?format=json"}, {"bioguideId": "L000565", "district": 2, "firstName": "David", "fullName": "Rep. Loebsack, David [D-IA-2]", "isOriginalCosponsor": false, "lastName": "Loebsack", "party": "D", "sponsorshipDate": "2019-04-25", "state": "IA", "url": "https://api.congress.gov/v3/member/L000565?format=json"}, {"bioguideId": "D000619", "district": 13, "firstName": "Rodney", "fullName": "Rep. Davis, Rodney [R-IL-13]", "isOriginalCosponsor": false, "lastName": "Davis", "party": "R", "sponsorshipDate": "2019-04-25", "state": "IL", "url": "https://api.congress.gov/v3/member/D000619?format=json"}, {"bioguideId": "C001091", "district": 20, "firstName": "Joaquin", "fullName": "Rep. Castro, Joaquin [D-TX-20]", "isOriginalCosponsor": false, "lastName": "Castro", "party": "D", "sponsorshipDate": "2019-04-30", "state": "TX", "url": "https://api.congress.gov/v3/member/C001091?format=json"}, {"bioguideId": "C001094", "district": 8, "firstName": "Paul", "fullName": "Rep. Cook, Paul [R-CA-8]", "isOriginalCosponsor": false, "lastName": "Cook", "party": "R", "sponsorshipDate": "2019-05-01", "state": "CA", "url": "https://api.congress.gov/v3/member/C001094?format=json"}, {"bioguideId": "C001053", "district": 4, "firstName": "Tom", "fullName": "Rep. Cole, Tom [R-OK-4]", "isOriginalCosponsor": false, "lastName": "Cole", "party": "R", "sponsorshipDate": "2019-05-01", "state": "OK", "url": "https://api.congress.gov/v3/member/C001053?format=json"}, {"bioguideId": "M001202", "district": 7, "firstName": "Stephanie", "fullName": "Rep. Murphy, Stephanie N. [D-FL-7]", "isOriginalCosponsor": false, "lastName": "Murphy", "middleName": "N.", "party": "D", "sponsorshipDate": "2019-05-07", "state": "FL", "url": "https://api.congress.gov/v3/member/M001202?format=json"}, {"bioguideId": "C001049", "district": 1, "firstName": "WM.", "fullName": "Rep. Clay, Wm. Lacy [D-MO-1]", "isOriginalCosponsor": false, "lastName": "CLAY", "middleName": "LACY", "party": "D", "sponsorshipDate": "2019-05-07", "state": "MO", "url": "https://api.congress.gov/v3/member/C001049?format=json"}, {"bioguideId": "M001143", "district": 4, "firstName": "BETTY", "fullName": "Rep. McCollum, Betty [D-MN-4]", "isOriginalCosponsor": false, "lastName": "MCCOLLUM", "party": "D", "sponsorshipDate": "2019-05-09", "state": "MN", "url": "https://api.congress.gov/v3/member/M001143?format=json"}, {"bioguideId": "G000586", "district": 4, "firstName": "Jesus", "fullName": "Rep. Garcia, Jesus G. \"Chuy\" [D-IL-4]", "isOriginalCosponsor": false, "lastName": "Garcia", "middleName": "G.", "party": "D", "sponsorshipDate": "2019-05-09", "state": "IL", "url": "https://api.congress.gov/v3/member/G000586?format=json"}, {"bioguideId": "G000591", "district": 3, "firstName": "Michael", "fullName": "Rep. Guest, Michael [R-MS-3]", "isOriginalCosponsor": false, "lastName": "Guest", "party": "R", "sponsorshipDate": "2019-05-14", "state": "MS", "url": "https://api.congress.gov/v3/member/G000591?format=json"}, {"bioguideId": "W000812", "district": 2, "firstName": "Ann", "fullName": "Rep. Wagner, Ann [R-MO-2]", "isOriginalCosponsor": false, "lastName": "Wagner", "party": "R", "sponsorshipDate": "2019-05-14", "state": "MO", "url": "https://api.congress.gov/v3/member/W000812?format=json"}, {"bioguideId": "C001055", "district": 1, "firstName": "Ed", "fullName": "Rep. Case, Ed [D-HI-1]", "isOriginalCosponsor": false, "lastName": "Case", "party": "D", "sponsorshipDate": "2019-05-14", "state": "HI", "url": "https://api.congress.gov/v3/member/C001055?format=json"}, {"bioguideId": "K000362", "district": 4, "firstName": "Steve", "fullName": "Rep. King, Steve [R-IA-4]", "isOriginalCosponsor": false, "lastName": "King", "party": "R", "sponsorshipDate": "2019-05-20", "state": "IA", "url": "https://api.congress.gov/v3/member/K000362?format=json"}], "pagination": {"count": 154, "countIncludingWithdrawnCosponsors": 154, "next": "https://api.congress.gov/v3/bill/116/hres/189/cosponsors?offset=20&limit=20&format=json"}, "request": {"billNumber": "189", "billType": "hres", "billUrl": "https://api.congress.gov/v3/bill/116/hres/189?format=json", "congress": "116", "contentType": "application/json", "format": "json"}}, "summaries": {"pagination": {"count": 2}, "request": {"billNumber": "189", "billType": "hres", "billUrl": "https://api.congress.gov/v3/bill/116/hres/189?format=json", "congress": "116", "contentType": "application/json", "format": "json"}, "summaries": [{"actionDate": "2019-03-07", "actionDesc": "Introduced in House", "text": " <p>This resolution expresses support for increased U.S. efforts to combat malnutrition among women and children&nbsp;and acknowledges the contributions of the U.S. Agency for International Development in addressing global nutritional needs. </p>", "updateDate": "2020-05-06T18:04:34Z", "versionCode": "00"}, {"actionDate": "2020-12-07", "actionDesc": "Passed House", "text": " <p>This resolution expresses support for increased U.S. efforts to combat malnutrition among women and children&nbsp;and acknowledges the contributions of the U.S. Agency for International Development in addressing global nutritional needs. </p>", "updateDate": "2021-02-19T15:18:29Z", "versionCode": "53"}]}, "titles": {"pagination": {"count": 4}, "request": {"billNumber": "189", "billType": "hres", "billUrl": "https://api.congress.gov/v3/bill/116/hres/189?format=json", "congress": "116", "contentType": "application/json", "format": "json"}, "titles": [{"title": "Supporting sustained United States leadership to accelerating global progress against maternal and child malnutrition and supporting United States Agency for International Development's commitment to global nutrition through its multi-sectoral nutrition strategy.", "titleType": "Display Title", "titleTypeCode": 45, "updateDate": "2025-01-03T02:51:45Z"}, {"billTextVersionCode": "EH", "billTextVersionName": "Engrossed in House", "title": "A resolution supporting sustained United States leadership to accelerating global progress against maternal and child malnutrition and supporting United States Agency for International Development\u2019s commitment to global nutrition through its multi-sectoral nutrition strategy.", "titleType": "Official Title as Introduced", "titleTypeCode": 6, "updateDate": "2022-02-08T20:00:22Z"}, {"billTextVersionCode": "IH", "billTextVersionName": "Introduced in House", "title": "Recognizing the importance of sustained United States leadership to accelerating global progress against maternal and child malnutrition and supporting United States Agency for International Development's commitment to global nutrition through its multi-sectoral nutrition strategy.", "titleType": "Official Title as Introduced", "titleTypeCode": 6, "updateDate": "2021-12-29T21:25:39Z"}, {"chamberCode": "H", "chamberName": "House", "title": "Supporting sustained United States leadership to accelerating global progress against maternal and child malnutrition and supporting United States Agency for International Development's commitment to global nutrition through its multi-sectoral nutrition strategy.", "titleType": "Official Titles as Amended by House", "titleTypeCode": 7, "updateDate": "2021-12-29T21:25:39Z"}]}, "meta": {"bill": {"actions": {"count": 17, "url": "https://api.congress.gov/v3/bill/116/hres/189/actions?format=json"}, "committees": {"count": 2, "url": "https://api.congress.gov/v3/bill/116/hres/189/committees?format=json"}, "congress": 116, "cosponsors": {"count": 154, "countIncludingWithdrawnCosponsors": 154, "url": "https://api.congress.gov/v3/bill/116/hres/189/cosponsors?format=json"}, "introducedDate": "2019-03-07", "latestAction": {"actionDate": "2020-12-07", "actionTime": "12:58:18", "text": "The title of the measure was amended. Agreed to without objection."}, "number": "189", "originChamber": "House", "originChamberCode": "H", "policyArea": {"name": "International Affairs"}, "relatedBills": {"count": 1, "url": "https://api.congress.gov/v3/bill/116/hres/189/relatedbills?format=json"}, "sponsors": [{"bioguideId": "M001198", "district": 1, "firstName": "Roger", "fullName": "Rep. Marshall, Roger [R-KS-1]", "isByRequest": "N", "lastName": "Marshall", "party": "R", "state": "KS", "url": "https://api.congress.gov/v3/member/M001198?format=json"}], "subjects": {"count": 8, "url": "https://api.congress.gov/v3/bill/116/hres/189/subjects?format=json"}, "summaries": {"count": 2, "url": "https://api.congress.gov/v3/bill/116/hres/189/summaries?format=json"}, "textVersions": {"count": 2, "url": "https://api.congress.gov/v3/bill/116/hres/189/text?format=json"}, "title": "Supporting sustained United States leadership to accelerating global progress against maternal and child malnutrition and supporting United States Agency for International Development's commitment to global nutrition through its multi-sectoral nutrition strategy.", "titles": {"count": 4, "url": "https://api.congress.gov/v3/bill/116/hres/189/titles?format=json"}, "type": "HRES", "updateDate": "2025-01-03T02:51:45Z", "updateDateIncludingText": "2025-01-03T02:51:45Z"}, "request": {"billNumber": "189", "billType": "hres", "congress": "116", "contentType": "application/json", "format": "json"}}}