{"actions": {"actions": [{"actionCode": "H11000", "actionDate": "2020-04-03", "committees": [{"name": "Africa Subcommittee", "systemCode": "hsfa16", "url": "https://api.congress.gov/v3/committee/house/hsfa16?format=json"}], "sourceSystem": {"code": 1, "name": "House committee actions"}, "text": "Referred to the Subcommittee on Africa, Global Health, Global Human Rights, and International Organizations.", "type": "Committee"}, {"actionCode": "H11100", "actionDate": "2020-02-21", "committees": [{"name": "Foreign Affairs Committee", "systemCode": "hsfa00", "url": "https://api.congress.gov/v3/committee/house/hsfa00?format=json"}], "sourceSystem": {"code": 2, "name": "House floor actions"}, "text": "Referred to the House Committee on Foreign Affairs.", "type": "IntroReferral"}, {"actionCode": "Intro-H", "actionDate": "2020-02-21", "sourceSystem": {"code": 9, "name": "Library of Congress"}, "text": "Introduced in House", "type": "IntroReferral"}, {"actionCode": "1000", "actionDate": "2020-02-21", "sourceSystem": {"code": 9, "name": "Library of Congress"}, "text": "Introduced in House", "type": "IntroReferral"}], "pagination": {"count": 4}, "request": {"billNumber": "861", "billType": "hres", "billUrl": "https://api.congress.gov/v3/bill/116/hres/861?format=json", "congress": "116", "contentType": "application/json", "format": "json"}}, "cosponsors": {"cosponsors": [{"bioguideId": "B001284", "district": 5, "firstName": "Susan", "fullName": "Rep. Brooks, Susan W. [R-IN-5]", "isOriginalCosponsor": true, "lastName": "Brooks", "middleName": "W.", "party": "R", "sponsorshipDate": "2020-02-21", "state": "IN", "url": "https://api.congress.gov/v3/member/B001284?format=json"}, {"bioguideId": "L000551", "district": 13, "firstName": "BARBARA", "fullName": "Rep. Lee, Barbara [D-CA-13]", "isOriginalCosponsor": true, "lastName": "LEE", "party": "D", "sponsorshipDate": "2020-02-21", "state": "CA", "url": "https://api.congress.gov/v3/member/L000551?format=json"}, {"bioguideId": "F000466", "district": 1, "firstName": "Brian", "fullName": "Rep. Fitzpatrick, Brian K. [R-PA-1]", "isOriginalCosponsor": true, "lastName": "Fitzpatrick", "middleName": "K.", "party": "R", "sponsorshipDate": "2020-02-21", "state": "PA", "url": "https://api.congress.gov/v3/member/F000466?format=json"}, {"bioguideId": "S000510", "district": 9, "firstName": "ADAM", "fullName": "Rep. Smith, Adam [D-WA-9]", "isOriginalCosponsor": true, "lastName": "SMITH", "party": "D", "sponsorshipDate": "2020-02-21", "state": "WA", "url": "https://api.congress.gov/v3/member/S000510?format=json"}, {"bioguideId": "Y000065", "district": 3, "firstName": "Ted", "fullName": "Rep. Yoho, Ted S. [R-FL-3]", "isOriginalCosponsor": true, "lastName": "Yoho", "middleName": "S.", "party": "R", "sponsorshipDate": "2020-02-21", "state": "FL", "url": "https://api.congress.gov/v3/member/Y000065?format=json"}, {"bioguideId": "C001053", "district": 4, "firstName": "Tom", "fullName": "Rep. Cole, Tom [R-OK-4]", "isOriginalCosponsor": false, "lastName": "Cole", "party": "R", "sponsorshipDate": "2020-02-26", "state": "OK", "url": "https://api.congress.gov/v3/member/C001053?format=json"}, {"bioguideId": "B001257", "district": 12, "firstName": "Gus", "fullName": "Rep. Bilirakis, Gus M. [R-FL-12]", "isOriginalCosponsor": false, "lastName": "Bilirakis", "middleName": "M.", "party": "R", "sponsorshipDate": "2020-02-26", "state": "FL", "url": "https://api.congress.gov/v3/member/B001257?format=json"}, {"bioguideId": "S001200", "district": 9, "firstName": "Darren", "fullName": "Rep. Soto, Darren [D-FL-9]", "isOriginalCosponsor": false, "lastName": "Soto", "party": "D", "sponsorshipDate": "2020-02-26", "state": "FL", "url": "https://api.congress.gov/v3/member/S001200?format=json"}, {"bioguideId": "G000574", "district": 7, "firstName": "Ruben", "fullName": "Rep. Gallego, Ruben [D-AZ-7]", "isOriginalCosponsor": false, "lastName": "Gallego", "party": "D", "sponsorshipDate": "2020-02-26", "state": "AZ", "url": "https://api.congress.gov/v3/member/G000574?format=json"}, {"bioguideId": "A000378", "district": 3, "firstName": "Cynthia", "fullName": "Rep. Axne, Cynthia [D-IA-3]", "isOriginalCosponsor": false, "lastName": "Axne", "party": "D", "sponsorshipDate": "2020-02-27", "state": "IA", "url": "https://api.congress.gov/v3/member/A000378?format=json"}, {"bioguideId": "C001055", "district": 1, "firstName": "Ed", "fullName": "Rep. Case, Ed [D-HI-1]", "isOriginalCosponsor": false, "lastName": "Case", "party": "D", "sponsorshipDate": "2020-03-02", "state": "HI", "url": "https://api.congress.gov/v3/member/C001055?format=json"}, {"bioguideId": "L000491", "district": 3, "firstName": "FRANK", "fullName": "Rep. Lucas, Frank D. [R-OK-3]", "isOriginalCosponsor": false, "lastName": "LUCAS", "middleName": "D.", "party": "R", "sponsorshipDate": "2020-03-02", "state": "OK", "url": "https://api.congress.gov/v3/member/L000491?format=json"}, {"bioguideId": "S001201", "district": 3, "firstName": "Thomas", "fullName": "Rep. Suozzi, Thomas R. [D-NY-3]", "isOriginalCosponsor": false, "lastName": "Suozzi", "middleName": "R.", "party": "D", "sponsorshipDate": "2020-03-03", "state": "NY", "url": "https://api.congress.gov/v3/member/S001201?format=json"}, {"bioguideId": "R000576", "district": 2, "firstName": "C. A.", "fullName": "Rep. Ruppersberger, C. A. Dutch [D-MD-2]", "isOriginalCosponsor": false, "lastName": "Ruppersberger", "middleName": "Dutch", "party": "D", "sponsorshipDate": "2020-03-05", "state": "MD", "url": "https://api.congress.gov/v3/member/R000576?format=json"}, {"bioguideId": "Y000033", "district": 0, "firstName": "DON", "fullName": "Rep. Young, Don [R-AK-At Large]", "isOriginalCosponsor": false, "lastName": "YOUNG", "middleName": "E.", "party": "R", "sponsorshipDate": "2020-03-05", "state": "AK", "url": "https://api.congress.gov/v3/member/Y000033?format=json"}, {"bioguideId": "J000288", "district": 4, "firstName": "Henry", "fullName": "Rep. Johnson, Henry C. \"Hank,\" Jr. [D-GA-4]", "isOriginalCosponsor": false, "lastName": "Johnson", "middleName": "C. \"Hank\"", "party": "D", "sponsorshipDate": "2020-03-11", "state": "GA", "url": "https://api.congress.gov/v3/member/J000288?format=json"}, {"bioguideId": "S001209", "district": 7, "firstName": "Abigail", "fullName": "Rep. Spanberger, Abigail Davis [D-VA-7]", "isOriginalCosponsor": false, "lastName": "Spanberger", "middleName": "Davis", "party": "D", "sponsorshipDate": "2020-05-01", "state": "VA", "url": "https://api.congress.gov/v3/member/S001209?format=json"}, {"bioguideId": "F000454", "district": 11, "firstName": "Bill", "fullName": "Rep. Foster, Bill [D-IL-11]", "isOriginalCosponsor": false, "lastName": "Foster", "party": "D", "sponsorshipDate": "2020-06-04", "state": "IL", "url": "https://api.congress.gov/v3/member/F000454?format=json"}, {"bioguideId": "H001083", "district": 5, "firstName": "Kendra", "fullName": "Rep. Horn, Kendra S. [D-OK-5]", "isOriginalCosponsor": false, "lastName": "Horn", "middleName": "S.", "party": "D", "sponsorshipDate": "2020-06-04", "state": "OK", "url": "https://api.congress.gov/v3/member/H001083?format=json"}, {"bioguideId": "B001281", "district": 3, "firstName": "Joyce", "fullName": "Rep. Beatty, Joyce [D-OH-3]", "isOriginalCosponsor": false, "lastName": "Beatty", "party": "D", "sponsorshipDate": "2020-06-25", "state": "OH", "url": "https://api.congress.gov/v3/member/B001281?format=json"}], "pagination": {"count": 25, "countIncludingWithdrawnCosponsors": 25, "next": "https://api.congress.gov/v3/bill/116/hres/861/cosponsors?offset=20&limit=20&format=json"}, "request": {"billNumber": "861", "billType": "hres", "billUrl": "https://api.congress.gov/v3/bill/116/hres/861?format=json", "congress": "116", "contentType": "application/json", "format": "json"}}, "summaries": {"pagination": {"count": 1}, "request": {"billNumber": "861", "billType": "hres", "billUrl": "https://api.congress.gov/v3/bill/116/hres/861?format=json", "congress": "116", "contentType": "application/json", "format": "json"}, "summaries": [{"actionDate": "2020-02-21", "actionDesc": "Introduced in House", "text": " <p>This resolution supports the principles and goals of the Global Alliance for Vaccines and Immunization (GAVI), affirms U.S. support for the purchase of vaccines for developing countries through GAVI, and encourages continued collaboration with, and investment in, GAVI to introduce and sustain new and underused vaccines in immunization programs.</p>", "updateDate": "2020-03-25T14:43:11Z", "versionCode": "00"}]}, "titles": {"pagination": {"count": 2}, "request": {"billNumber": "861", "billType": "hres", "billUrl": "https://api.congress.gov/v3/bill/116/hres/861?format=json", "congress": "116", "contentType": "application/json", "format": "json"}, "titles": [{"title": "Supporting the role of the United States in helping save the lives of children and protecting the health of people in poor countries with vaccines and immunization through the GAVI Alliance.", "titleType": "Display Title", "titleTypeCode": 45, "updateDate": "2025-01-03T03:22:22Z"}, {"billTextVersionCode": "IH", "billTextVersionName": "Introduced in House", "title": "Supporting the role of the United States in helping save the lives of children and protecting the health of people in poor countries with vaccines and immunization through the GAVI Alliance.", "titleType": "Official Title as Introduced", "titleTypeCode": 6, "updateDate": "2021-12-29T21:27:05Z"}]}, "meta": {"bill": {"actions": {"count": 4, "url": "https://api.congress.gov/v3/bill/116/hres/861/actions?format=json"}, "committees": {"count": 1, "url": "https://api.congress.gov/v3/bill/116/hres/861/committees?format=json"}, "congress": 116, "cosponsors": {"count": 25, "countIncludingWithdrawnCosponsors": 25, "url": "https://api.congress.gov/v3/bill/116/hres/861/cosponsors?format=json"}, "introducedDate": "2020-02-21", "latestAction": {"actionDate": "2020-04-03", "text": "Referred to the Subcommittee on Africa, Global Health, Global Human Rights, and International Organizations."}, "number": "861", "originChamber": "House", "originChamberCode": "H", "policyArea": {"name": "International Affairs"}, "sponsors": [{"bioguideId": "M001143", "district": 4, "firstName": "BETTY", "fullName": "Rep. McCollum, Betty [D-MN-4]", "isByRequest": "N", "lastName": "MCCOLLUM", "party": "D", "state": "MN", "url": "https://api.congress.gov/v3/member/M001143?format=json"}], "subjects": {"count": 13, "url": "https://api.congress.gov/v3/bill/116/hres/861/subjects?format=json"}, "summaries": {"count": 1, "url": "https://api.congress.gov/v3/bill/116/hres/861/summaries?format=json"}, "textVersions": {"count": 1, "url": "https://api.congress.gov/v3/bill/116/hres/861/text?format=json"}, "title": "Supporting the role of the United States in helping save the lives of children and protecting the health of people in poor countries with vaccines and immunization through the GAVI Alliance.", "titles": {"count": 2, "url": "https://api.congress.gov/v3/bill/116/hres/861/titles?format=json"}, "type": "HRES", "updateDate": "2025-01-23T13:32:43Z", "updateDateIncludingText": "2025-01-23T13:32:43Z"}, "request": {"billNumber": "861", "billType": "hres", "congress": "116", "contentType": "application/json", "format": "json"}}}