{"actions": {"actions": [{"actionDate": "2021-07-12", "committees": [{"name": "Foreign Relations Committee", "systemCode": "ssfr00", "url": "https://api.congress.gov/v3/committee/senate/ssfr00?format=json"}], "sourceSystem": {"name": "Senate"}, "text": "Received in the Senate and Read twice and referred to the Committee on Foreign Relations.", "type": "IntroReferral"}, {"actionCode": "H38310", "actionDate": "2021-06-28", "actionTime": "19:46:03", "sourceSystem": {"code": 2, "name": "House floor actions"}, "text": "Motion to reconsider laid on the table Agreed to without objection.", "type": "Floor"}, {"actionCode": "H37300", "actionDate": "2021-06-28", "actionTime": "19:46:02", "recordedVotes": [{"chamber": "House", "congress": 117, "date": "2021-06-28T23:46:02Z", "rollNumber": 188, "sessionNumber": 1, "url": "https://clerk.house.gov/evs/2021/roll188.xml"}], "sourceSystem": {"code": 2, "name": "House floor actions"}, "text": "On motion to suspend the rules and pass the bill, as amended Agreed to by the Yeas and Nays: (2/3 required): 307 - 112 (Roll no. 188). (text: CR H3165-3169)", "type": "Floor"}, {"actionCode": "8000", "actionDate": "2021-06-28", "actionTime": "19:46:02", "recordedVotes": [{"chamber": "House", "congress": 117, "date": "2021-06-28T23:46:02Z", "rollNumber": 188, "sessionNumber": 1, "url": "https://clerk.house.gov/evs/2021/roll188.xml"}], "sourceSystem": {"code": 9, "name": "Library of Congress"}, "text": "Passed/agreed to in House: On motion to suspend the rules and pass the bill, as amended Agreed to by the Yeas and Nays: (2/3 required): 307 - 112 (Roll no. 188).(text: CR H3165-3169)", "type": "Floor"}, {"actionCode": "H30000", "actionDate": "2021-06-28", "actionTime": "19:24:39", "sourceSystem": {"code": 2, "name": "House floor actions"}, "text": "Considered as unfinished business. (consideration: CR H3224-3225)", "type": "Floor"}, {"actionCode": "H37220", "actionDate": "2021-06-28", "actionTime": "15:20:02", "sourceSystem": {"code": 2, "name": "House floor actions"}, "text": "At the conclusion of debate, the Yeas and Nays were demanded and ordered. Pursuant to the provisions of clause 8, rule XX, the Chair announced that further proceedings on the motion would be postponed.", "type": "Floor"}, {"actionCode": "H8D000", "actionDate": "2021-06-28", "actionTime": "15:05:31", "sourceSystem": {"code": 2, "name": "House floor actions"}, "text": "DEBATE - The House proceeded with forty minutes of debate on H.R. 391.", "type": "Floor"}, {"actionCode": "H30000", "actionDate": "2021-06-28", "actionTime": "15:05:26", "sourceSystem": {"code": 2, "name": "House floor actions"}, "text": "Considered under suspension of the rules. (consideration: CR H3165-3171)", "type": "Floor"}, {"actionCode": "H30300", "actionDate": "2021-06-28", "actionTime": "15:05:13", "sourceSystem": {"code": 2, "name": "House floor actions"}, "text": "Mr. Meeks moved to suspend the rules and pass the bill, as amended.", "type": "Floor"}, {"actionCode": "H19000", "actionDate": "2021-03-25", "committees": [{"name": "Foreign Affairs Committee", "systemCode": "hsfa00", "url": "https://api.congress.gov/v3/committee/house/hsfa00?format=json"}], "sourceSystem": {"code": 1, "name": "House committee actions"}, "text": "Ordered to be Reported (Amended) by Voice Vote.", "type": "Committee"}, {"actionCode": "H15000-B", "actionDate": "2021-03-25", "committees": [{"name": "Foreign Affairs Committee", "systemCode": "hsfa00", "url": "https://api.congress.gov/v3/committee/house/hsfa00?format=json"}], "sourceSystem": {"code": 1, "name": "House committee actions"}, "text": "Committee Consideration and Mark-up Session Held.", "type": "Committee"}, {"actionCode": "H11100", "actionDate": "2021-01-21", "committees": [{"name": "Foreign Affairs Committee", "systemCode": "hsfa00", "url": "https://api.congress.gov/v3/committee/house/hsfa00?format=json"}], "sourceSystem": {"code": 2, "name": "House floor actions"}, "text": "Referred to the House Committee on Foreign Affairs.", "type": "IntroReferral"}, {"actionCode": "Intro-H", "actionDate": "2021-01-21", "sourceSystem": {"code": 9, "name": "Library of Congress"}, "text": "Introduced in House", "type": "IntroReferral"}, {"actionCode": "1000", "actionDate": "2021-01-21", "sourceSystem": {"code": 9, "name": "Library of Congress"}, "text": "Introduced in House", "type": "IntroReferral"}], "pagination": {"count": 14}, "request": {"billNumber": "391", "billType": "hr", "billUrl": "https://api.congress.gov/v3/bill/117/hr/391?format=json", "congress": "117", "contentType": "application/json", "format": "json"}}, "cosponsors": {"cosponsors": [{"bioguideId": "C000266", "district": 1, "firstName": "STEVE", "fullName": "Rep. Chabot, Steve [R-OH-1]", "isOriginalCosponsor": true, "lastName": "CHABOT", "party": "R", "sponsorshipDate": "2021-01-21", "state": "OH", "url": "https://api.congress.gov/v3/member/C000266?format=json"}, {"bioguideId": "W000812", "district": 2, "firstName": "Ann", "fullName": "Rep. Wagner, Ann [R-MO-2]", "isOriginalCosponsor": true, "lastName": "Wagner", "party": "R", "sponsorshipDate": "2021-01-21", "state": "MO", "url": "https://api.congress.gov/v3/member/W000812?format=json"}, {"bioguideId": "B001287", "district": 7, "firstName": "Ami", "fullName": "Rep. Bera, Ami [D-CA-7]", "isOriginalCosponsor": true, "lastName": "Bera", "party": "D", "sponsorshipDate": "2021-01-21", "state": "CA", "url": "https://api.congress.gov/v3/member/B001287?format=json"}, {"bioguideId": "F000466", "district": 1, "firstName": "Brian", "fullName": "Rep. Fitzpatrick, Brian K. [R-PA-1]", "isOriginalCosponsor": true, "lastName": "Fitzpatrick", "middleName": "K.", "party": "R", "sponsorshipDate": "2021-01-21", "state": "PA", "url": "https://api.congress.gov/v3/member/F000466?format=json"}, {"bioguideId": "L000560", "district": 2, "firstName": "RICK", "fullName": "Rep. Larsen, Rick [D-WA-2]", "isOriginalCosponsor": true, "lastName": "LARSEN", "party": "D", "sponsorshipDate": "2021-01-21", "state": "WA", "url": "https://api.congress.gov/v3/member/L000560?format=json"}, {"bioguideId": "B001270", "district": 37, "firstName": "Karen", "fullName": "Rep. Bass, Karen [D-CA-37]", "isOriginalCosponsor": true, "lastName": "Bass", "party": "D", "sponsorshipDate": "2021-01-21", "state": "CA", "url": "https://api.congress.gov/v3/member/B001270?format=json"}, {"bioguideId": "B001281", "district": 3, "firstName": "Joyce", "fullName": "Rep. Beatty, Joyce [D-OH-3]", "isOriginalCosponsor": true, "lastName": "Beatty", "party": "D", "sponsorshipDate": "2021-01-21", "state": "OH", "url": "https://api.congress.gov/v3/member/B001281?format=json"}, {"bioguideId": "B001292", "district": 8, "firstName": "Donald", "fullName": "Rep. Beyer, Donald S., Jr. [D-VA-8]", "isOriginalCosponsor": true, "lastName": "Beyer", "middleName": "S.", "party": "D", "sponsorshipDate": "2021-01-21", "state": "VA", "url": "https://api.congress.gov/v3/member/B001292?format=json"}, {"bioguideId": "B001303", "district": 0, "firstName": "Lisa", "fullName": "Rep. Blunt Rochester, Lisa [D-DE-At Large]", "isOriginalCosponsor": true, "lastName": "Blunt Rochester", "party": "D", "sponsorshipDate": "2021-01-21", "state": "DE", "url": "https://api.congress.gov/v3/member/B001303?format=json"}, {"bioguideId": "B001285", "district": 26, "firstName": "Julia", "fullName": "Rep. Brownley, Julia [D-CA-26]", "isOriginalCosponsor": true, "lastName": "Brownley", "party": "D", "sponsorshipDate": "2021-01-21", "state": "CA", "url": "https://api.congress.gov/v3/member/B001285?format=json"}, {"bioguideId": "C001090", "district": 8, "firstName": "Matt", "fullName": "Rep. Cartwright, Matt [D-PA-8]", "isOriginalCosponsor": true, "lastName": "Cartwright", "party": "D", "sponsorshipDate": "2021-01-21", "state": "PA", "url": "https://api.congress.gov/v3/member/C001090?format=json"}, {"bioguideId": "C001055", "district": 1, "firstName": "Ed", "fullName": "Rep. Case, Ed [D-HI-1]", "isOriginalCosponsor": true, "lastName": "Case", "party": "D", "sponsorshipDate": "2021-01-21", "state": "HI", "url": "https://api.congress.gov/v3/member/C001055?format=json"}, {"bioguideId": "C001117", "district": 6, "firstName": "Sean", "fullName": "Rep. Casten, Sean [D-IL-6]", "isOriginalCosponsor": true, "lastName": "Casten", "party": "D", "sponsorshipDate": "2021-01-21", "state": "IL", "url": "https://api.congress.gov/v3/member/C001117?format=json"}, {"bioguideId": "C001084", "district": 1, "firstName": "David", "fullName": "Rep. Cicilline, David N. [D-RI-1]", "isOriginalCosponsor": true, "lastName": "Cicilline", "middleName": "N.", "party": "D", "sponsorshipDate": "2021-01-21", "state": "RI", "url": "https://api.congress.gov/v3/member/C001084?format=json"}, {"bioguideId": "C001061", "district": 5, "firstName": "Emanuel", "fullName": "Rep. Cleaver, Emanuel [D-MO-5]", "isOriginalCosponsor": true, "lastName": "Cleaver", "party": "D", "sponsorshipDate": "2021-01-21", "state": "MO", "url": "https://api.congress.gov/v3/member/C001061?format=json"}, {"bioguideId": "C001053", "district": 4, "firstName": "Tom", "fullName": "Rep. Cole, Tom [R-OK-4]", "isOriginalCosponsor": true, "lastName": "Cole", "party": "R", "sponsorshipDate": "2021-01-21", "state": "OK", "url": "https://api.congress.gov/v3/member/C001053?format=json"}, {"bioguideId": "C000754", "district": 5, "firstName": "JAMES", "fullName": "Rep. Cooper, Jim [D-TN-5]", "isOriginalCosponsor": true, "lastName": "COOPER", "middleName": "H.", "party": "D", "sponsorshipDate": "2021-01-21", "state": "TN", "url": "https://api.congress.gov/v3/member/C000754?format=json"}, {"bioguideId": "C001059", "district": 16, "firstName": "Jim", "fullName": "Rep. Costa, Jim [D-CA-16]", "isOriginalCosponsor": true, "lastName": "Costa", "party": "D", "sponsorshipDate": "2021-01-21", "state": "CA", "url": "https://api.congress.gov/v3/member/C001059?format=json"}, {"bioguideId": "D000631", "district": 4, "firstName": "Madeleine", "fullName": "Rep. Dean, Madeleine [D-PA-4]", "isOriginalCosponsor": true, "lastName": "Dean", "party": "D", "sponsorshipDate": "2021-01-21", "state": "PA", "url": "https://api.congress.gov/v3/member/D000631?format=json"}, {"bioguideId": "D000191", "district": 4, "firstName": "PETER", "fullName": "Rep. DeFazio, Peter A. [D-OR-4]", "isOriginalCosponsor": true, "lastName": "DEFAZIO", "middleName": "A.", "party": "D", "sponsorshipDate": "2021-01-21", "state": "OR", "url": "https://api.congress.gov/v3/member/D000191?format=json"}], "pagination": {"count": 77, "countIncludingWithdrawnCosponsors": 77, "next": "https://api.congress.gov/v3/bill/117/hr/391/cosponsors?offset=20&limit=20&format=json"}, "request": {"billNumber": "391", "billType": "hr", "billUrl": "https://api.congress.gov/v3/bill/117/hr/391?format=json", "congress": "117", "contentType": "application/json", "format": "json"}}, "summaries": {"pagination": {"count": 2}, "request": {"billNumber": "391", "billType": "hr", "billUrl": "https://api.congress.gov/v3/bill/117/hr/391?format=json", "congress": "117", "contentType": "application/json", "format": "json"}, "summaries": [{"actionDate": "2021-01-21", "actionDesc": "Introduced in House", "text": " <p><b>Global Health Security Act of 2021</b></p> <p>This bill directs the President to create the Global Health Security Agenda Interagency Review Council to implement the Global Health Security Agenda, an initiative launched by nearly 30 nations to address global infectious disease threats. </p> <p>The council's responsibilities include (1) providing policy recommendations on agenda-related goals, objectives, and implementation; (2) helping federal agencies with implementation; and (3) reviewing the progress and challenges in achieving U.S. commitments, including assistance to help other countries meet agenda&nbsp;targets. The bill also directs the federal agencies involved&nbsp;with the agenda&nbsp;to prioritize its implementation and to take certain steps to achieve that goal.</p> <p>The President shall also appoint a U.S. Coordinator for Global Health Security to coordinate and report on the interagency process for responding to global health security emergencies.</p>", "updateDate": "2021-02-23T16:30:59Z", "versionCode": "00"}, {"actionDate": "2021-06-28", "actionDesc": "Passed House", "text": " <p><b>Global Health Security Act of 2021</b></p> <p>This bill directs the United States to implement a strategy to strengthen global health security, including by requiring the President to create the Global Health Security Agenda Interagency Review Council to implement the Global Health Security Agenda. The agenda is an initiative launched by nearly 30 nations to address global infectious disease threats. </p> <p>The council's responsibilities include (1) providing policy recommendations on agenda-related goals, objectives, implementation, and other international efforts to strengthen pandemic preparedness and response; (2) helping federal agencies with implementation; and (3) reviewing the progress and challenges in achieving U.S. commitments, including assistance to help other countries meet agenda&nbsp;targets. The bill also directs the federal agencies involved&nbsp;with the agenda&nbsp;to prioritize its implementation and to take certain steps to achieve that goal.</p> <p>The President shall coordinate a strategy for responding to global health security emergencies and submit a report on the implementation of this strategy.</p> <p>Additionally, the Department of State should seek to enter into negotiations with donors, relevant United Nations agencies, and other multilateral stakeholders to establish a Fund for Global Health Security and Pandemic Preparedness that (1) closes gaps in global health security and pandemic preparedness; and (2) builds capacity in eligible partner countries related to global health security, infectious disease control, and pandemic preparedness. The fund should provide grants, technical assistance, and innovative funding mechanisms to achieve its purposes.</p>", "updateDate": "2021-10-28T16:45:09Z", "versionCode": "53"}]}, "titles": {"pagination": {"count": 5}, "request": {"billNumber": "391", "billType": "hr", "billUrl": "https://api.congress.gov/v3/bill/117/hr/391?format=json", "congress": "117", "contentType": "application/json", "format": "json"}, "titles": [{"title": "Global Health Security Act of 2021", "titleType": "Display Title", "titleTypeCode": 45, "updateDate": "2025-01-03T04:42:07Z"}, {"billTextVersionCode": "EH", "billTextVersionName": "Engrossed in House", "title": "To authorize a comprehensive, strategic approach for United States foreign assistance to developing countries to strengthen global health security, and for other purposes.", "titleType": "Official Title as Introduced", "titleTypeCode": 6, "updateDate": "2022-02-09T05:54:50Z"}, {"billTextVersionCode": "EH", "billTextVersionName": "Engrossed in House", "chamberCode": "H", "chamberName": "House", "title": "Global Health Security Act of 2021", "titleType": "Short Title(s) as Passed House", "titleTypeCode": 104, "updateDate": "2022-02-09T05:54:50Z"}, {"billTextVersionCode": "IH", "billTextVersionName": "Introduced in House", "title": "Global Health Security Act of 2021", "titleType": "Short Title(s) as Introduced", "titleTypeCode": 101, "updateDate": "2022-02-09T04:00:36Z"}, {"chamberCode": "H", "chamberName": "House", "title": "Global Health Security Act of 2021", "titleType": "Short Titles as Passed House", "titleTypeCode": 17, "updateDate": "2021-06-30T12:30:15Z"}]}, "meta": {"bill": {"actions": {"count": 14, "url": "https://api.congress.gov/v3/bill/117/hr/391/actions?format=json"}, "cboCostEstimates": [{"description": "As ordered reported by the House Committee on Foreign Affairs on March 25, 2021\n", "pubDate": "2021-05-11T15:11:11Z", "title": "H.R. 391, Global Health Security Act of 2021", "url": "https://www.cbo.gov/publication/57197"}], "committees": {"count": 2, "url": "https://api.congress.gov/v3/bill/117/hr/391/committees?format=json"}, "congress": 117, "constitutionalAuthorityStatementText": "<pre>\n[Congressional Record Volume 167, Number 12 (Thursday, January 21, 2021)]\n[House]\nFrom the Congressional Record Online through the Government Publishing Office [<a href=\"https://www.gpo.gov\">www.gpo.gov</a>]\nBy Mr. CONNOLLY:\nH.R. 391.\nCongress has the power to enact this legislation pursuant\nto the following:\nArticle I, Section 8, Clause 18: To make all Laws which\nshall be necessary and proper for carrying into Execution the\nforegoing Powers, and all other Powers vested by this\nConstitution in the Government of the United States, or in\nany Department or Officer thereof.\n[Page H224]\n</pre>", "cosponsors": {"count": 77, "countIncludingWithdrawnCosponsors": 77, "url": "https://api.congress.gov/v3/bill/117/hr/391/cosponsors?format=json"}, "introducedDate": "2021-01-21", "latestAction": {"actionDate": "2021-07-12", "text": "Received in the Senate and Read twice and referred to the Committee on Foreign Relations."}, "number": "391", "originChamber": "House", "originChamberCode": "H", "policyArea": {"name": "International Affairs"}, "sponsors": [{"bioguideId": "C001078", "district": 11, "firstName": "Gerald", "fullName": "Rep. Connolly, Gerald E. [D-VA-11]", "isByRequest": "N", "lastName": "Connolly", "middleName": "E.", "party": "D", "state": "VA", "url": "https://api.congress.gov/v3/member/C001078?format=json"}], "subjects": {"count": 17, "url": "https://api.congress.gov/v3/bill/117/hr/391/subjects?format=json"}, "summaries": {"count": 2, "url": "https://api.congress.gov/v3/bill/117/hr/391/summaries?format=json"}, "textVersions": {"count": 3, "url": "https://api.congress.gov/v3/bill/117/hr/391/text?format=json"}, "title": "Global Health Security Act of 2021", "titles": {"count": 5, "url": "https://api.congress.gov/v3/bill/117/hr/391/titles?format=json"}, "type": "HR", "updateDate": "2025-01-14T19:00:46Z", "updateDateIncludingText": "2025-01-14T19:00:46Z"}, "request": {"billNumber": "391", "billType": "hr", "congress": "117", "contentType": "application/json", "format": "json"}}}