{"actions": {"actions": [{"actionCode": "H11100", "actionDate": "2024-06-11", "committees": [{"name": "Foreign Affairs Committee", "systemCode": "hsfa00", "url": "https://api.congress.gov/v3/committee/house/hsfa00?format=json"}], "sourceSystem": {"code": 2, "name": "House floor actions"}, "text": "Referred to the House Committee on Foreign Affairs.", "type": "IntroReferral"}, {"actionCode": "Intro-H", "actionDate": "2024-06-11", "sourceSystem": {"code": 9, "name": "Library of Congress"}, "text": "Introduced in House", "type": "IntroReferral"}, {"actionCode": "1000", "actionDate": "2024-06-11", "sourceSystem": {"code": 9, "name": "Library of Congress"}, "text": "Introduced in House", "type": "IntroReferral"}], "pagination": {"count": 3}, "request": {"billNumber": "1286", "billType": "hres", "billUrl": "https://api.congress.gov/v3/bill/118/hres/1286?format=json", "congress": "118", "contentType": "application/json", "format": "json"}}, "cosponsors": {"cosponsors": [{"bioguideId": "A000380", "district": 1, "firstName": "Gabe", "fullName": "Rep. Amo, Gabe [D-RI-1]", "isOriginalCosponsor": true, "lastName": "Amo", "party": "D", "sponsorshipDate": "2024-06-11", "state": "RI", "url": "https://api.congress.gov/v3/member/A000380?format=json"}, {"bioguideId": "S000168", "district": 27, "firstName": "Maria", "fullName": "Rep. Salazar, Maria Elvira [R-FL-27]", "isOriginalCosponsor": true, "lastName": "Salazar", "middleName": "Elvira", "party": "R", "sponsorshipDate": "2024-06-11", "state": "FL", "url": "https://api.congress.gov/v3/member/S000168?format=json"}, {"bioguideId": "J000305", "district": 51, "firstName": "Sara", "fullName": "Rep. Jacobs, Sara [D-CA-51]", "isOriginalCosponsor": true, "lastName": "Jacobs", "party": "D", "sponsorshipDate": "2024-06-11", "state": "CA", "url": "https://api.congress.gov/v3/member/J000305?format=json"}, {"bioguideId": "K000380", "district": 8, "firstName": "Daniel", "fullName": "Rep. Kildee, Daniel T. [D-MI-8]", "isOriginalCosponsor": false, "lastName": "Kildee", "middleName": "T.", "party": "D", "sponsorshipDate": "2024-06-18", "state": "MI", "url": "https://api.congress.gov/v3/member/K000380?format=json"}, {"bioguideId": "C001121", "district": 6, "firstName": "Jason", "fullName": "Rep. Crow, Jason [D-CO-6]", "isOriginalCosponsor": false, "lastName": "Crow", "party": "D", "sponsorshipDate": "2024-06-21", "state": "CO", "url": "https://api.congress.gov/v3/member/C001121?format=json"}, {"bioguideId": "C001080", "district": 28, "firstName": "Judy", "fullName": "Rep. Chu, Judy [D-CA-28]", "isOriginalCosponsor": false, "lastName": "Chu", "party": "D", "sponsorshipDate": "2024-06-25", "state": "CA", "url": "https://api.congress.gov/v3/member/C001080?format=json"}, {"bioguideId": "W000788", "district": 5, "firstName": "Nikema", "fullName": "Rep. Williams, Nikema [D-GA-5]", "isOriginalCosponsor": false, "lastName": "Williams", "party": "D", "sponsorshipDate": "2024-06-25", "state": "GA", "url": "https://api.congress.gov/v3/member/W000788?format=json"}, {"bioguideId": "M000312", "district": 2, "firstName": "James", "fullName": "Rep. McGovern, James P. [D-MA-2]", "isOriginalCosponsor": false, "lastName": "McGovern", "middleName": "P.", "party": "D", "sponsorshipDate": "2024-06-25", "state": "MA", "url": "https://api.congress.gov/v3/member/M000312?format=json"}, {"bioguideId": "N000147", "district": 0, "firstName": "Eleanor", "fullName": "Del. Norton, Eleanor Holmes [D-DC-At Large]", "isOriginalCosponsor": false, "lastName": "Norton", "middleName": "Holmes", "party": "D", "sponsorshipDate": "2024-06-26", "state": "DC", "url": "https://api.congress.gov/v3/member/N000147?format=json"}, {"bioguideId": "K000391", "district": 8, "firstName": "Raja", "fullName": "Rep. Krishnamoorthi, Raja [D-IL-8]", "isOriginalCosponsor": false, "lastName": "Krishnamoorthi", "party": "D", "sponsorshipDate": "2024-06-26", "state": "IL", "url": "https://api.congress.gov/v3/member/K000391?format=json"}, {"bioguideId": "L000599", "district": 17, "firstName": "Michael", "fullName": "Rep. Lawler, Michael [R-NY-17]", "isOriginalCosponsor": false, "lastName": "Lawler", "party": "R", "sponsorshipDate": "2024-06-26", "state": "NY", "url": "https://api.congress.gov/v3/member/L000599?format=json"}, {"bioguideId": "F000466", "district": 1, "firstName": "Brian", "fullName": "Rep. Fitzpatrick, Brian K. [R-PA-1]", "isOriginalCosponsor": false, "lastName": "Fitzpatrick", "middleName": "K.", "party": "R", "sponsorshipDate": "2024-06-27", "state": "PA", "url": "https://api.congress.gov/v3/member/F000466?format=json"}, {"bioguideId": "Q000023", "district": 5, "firstName": "Mike", "fullName": "Rep. Quigley, Mike [D-IL-5]", "isOriginalCosponsor": false, "lastName": "Quigley", "party": "D", "sponsorshipDate": "2024-07-02", "state": "IL", "url": "https://api.congress.gov/v3/member/Q000023?format=json"}, {"bioguideId": "L000593", "district": 49, "firstName": "Mike", "fullName": "Rep. Levin, Mike [D-CA-49]", "isOriginalCosponsor": false, "lastName": "Levin", "party": "D", "sponsorshipDate": "2024-07-02", "state": "CA", "url": "https://api.congress.gov/v3/member/L000593?format=json"}, {"bioguideId": "S000510", "district": 9, "firstName": "Adam", "fullName": "Rep. Smith, Adam [D-WA-9]", "isOriginalCosponsor": false, "lastName": "Smith", "party": "D", "sponsorshipDate": "2024-07-09", "state": "WA", "url": "https://api.congress.gov/v3/member/S000510?format=json"}, {"bioguideId": "H001085", "district": 6, "firstName": "Chrissy", "fullName": "Rep. Houlahan, Chrissy [D-PA-6]", "isOriginalCosponsor": false, "lastName": "Houlahan", "party": "D", "sponsorshipDate": "2024-07-10", "state": "PA", "url": "https://api.congress.gov/v3/member/H001085?format=json"}, {"bioguideId": "K000394", "district": 3, "firstName": "Andy", "fullName": "Rep. Kim, Andy [D-NJ-3]", "isOriginalCosponsor": false, "lastName": "Kim", "party": "D", "sponsorshipDate": "2024-07-11", "state": "NJ", "url": "https://api.congress.gov/v3/member/K000394?format=json"}, {"bioguideId": "M001223", "district": 2, "firstName": "Seth", "fullName": "Rep. Magaziner, Seth [D-RI-2]", "isOriginalCosponsor": false, "lastName": "Magaziner", "party": "D", "sponsorshipDate": "2024-07-15", "state": "RI", "url": "https://api.congress.gov/v3/member/M001223?format=json"}, {"bioguideId": "V000131", "district": 33, "firstName": "Marc", "fullName": "Rep. Veasey, Marc A. [D-TX-33]", "isOriginalCosponsor": false, "lastName": "Veasey", "middleName": "A.", "party": "D", "sponsorshipDate": "2024-07-22", "state": "TX", "url": "https://api.congress.gov/v3/member/V000131?format=json"}, {"bioguideId": "W000826", "district": 7, "firstName": "Susan", "fullName": "Rep. Wild, Susan [D-PA-7]", "isOriginalCosponsor": false, "lastName": "Wild", "party": "D", "sponsorshipDate": "2024-07-22", "state": "PA", "url": "https://api.congress.gov/v3/member/W000826?format=json"}], "pagination": {"count": 38, "countIncludingWithdrawnCosponsors": 38, "next": "https://api.congress.gov/v3/bill/118/hres/1286/cosponsors?offset=20&limit=20&format=json"}, "request": {"billNumber": "1286", "billType": "hres", "billUrl": "https://api.congress.gov/v3/bill/118/hres/1286?format=json", "congress": "118", "contentType": "application/json", "format": "json"}}, "summaries": {"pagination": {"count": 0}, "request": {"billNumber": "1286", "billType": "hres", "billUrl": "https://api.congress.gov/v3/bill/118/hres/1286?format=json", "congress": "118", "contentType": "application/json", "format": "json"}, "summaries": []}, "titles": {"pagination": {"count": 2}, "request": {"billNumber": "1286", "billType": "hres", "billUrl": "https://api.congress.gov/v3/bill/118/hres/1286?format=json", "congress": "118", "contentType": "application/json", "format": "json"}, "titles": [{"billTextVersionCode": "IH", "billTextVersionName": "Introduced in House", "title": "Supporting the role of the United States in helping save the lives of children and protecting the health of people in low-income countries with vaccines and immunization through Gavi, the Vaccine Alliance (\"Gavi\").", "titleType": "Official Title as Introduced", "titleTypeCode": 6, "updateDate": "2024-06-12T08:18:15Z"}, {"title": "Supporting the role of the United States in helping save the lives of children and protecting the health of people in low-income countries with vaccines and immunization through Gavi, the Vaccine Alliance (\"Gavi\").", "titleType": "Display Title", "titleTypeCode": 45, "updateDate": "2024-06-12T08:05:20Z"}]}, "meta": {"bill": {"actions": {"count": 3, "url": "https://api.congress.gov/v3/bill/118/hres/1286/actions?format=json"}, "committees": {"count": 1, "url": "https://api.congress.gov/v3/bill/118/hres/1286/committees?format=json"}, "congress": 118, "cosponsors": {"count": 38, "countIncludingWithdrawnCosponsors": 38, "url": "https://api.congress.gov/v3/bill/118/hres/1286/cosponsors?format=json"}, "introducedDate": "2024-06-11", "latestAction": {"actionDate": "2024-06-11", "text": "Referred to the House Committee on Foreign Affairs."}, "number": "1286", "originChamber": "House", "originChamberCode": "H", "policyArea": {"name": "International Affairs"}, "relatedBills": {"count": 1, "url": "https://api.congress.gov/v3/bill/118/hres/1286/relatedbills?format=json"}, "sponsors": [{"bioguideId": "K000398", "district": 7, "firstName": "Thomas", "fullName": "Rep. Kean, Thomas H. [R-NJ-7]", "isByRequest": "N", "lastName": "Kean", "middleName": "H.", "party": "R", "state": "NJ", "url": "https://api.congress.gov/v3/member/K000398?format=json"}], "subjects": {"count": 1, "url": "https://api.congress.gov/v3/bill/118/hres/1286/subjects?format=json"}, "textVersions": {"count": 1, "url": "https://api.congress.gov/v3/bill/118/hres/1286/text?format=json"}, "title": "Supporting the role of the United States in helping save the lives of children and protecting the health of people in low-income countries with vaccines and immunization through Gavi, the Vaccine Alliance (\"Gavi\").", "titles": {"count": 2, "url": "https://api.congress.gov/v3/bill/118/hres/1286/titles?format=json"}, "type": "HRES", "updateDate": "2024-11-19T09:05:23Z", "updateDateIncludingText": "2024-11-19T09:05:23Z"}, "request": {"billNumber": "1286", "billType": "hres", "congress": "118", "contentType": "application/json", "format": "json"}}}