{"actions": {"actions": [{"actionCode": "H11000", "actionDate": "2024-12-17", "committees": [{"name": "Health Subcommittee", "systemCode": "hswm02", "url": "https://api.congress.gov/v3/committee/house/hswm02?format=json"}], "sourceSystem": {"code": 1, "name": "House committee actions"}, "text": "Referred to the Subcommittee on Health.", "type": "Committee"}, {"actionCode": "H11000", "actionDate": "2023-04-28", "committees": [{"name": "Health Subcommittee", "systemCode": "hsif14", "url": "https://api.congress.gov/v3/committee/house/hsif14?format=json"}], "sourceSystem": {"code": 1, "name": "House committee actions"}, "text": "Referred to the Subcommittee on Health.", "type": "Committee"}, {"actionCode": "H11100", "actionDate": "2023-04-27", "committees": [{"name": "Budget Committee", "systemCode": "hsbu00", "url": "https://api.congress.gov/v3/committee/house/hsbu00?format=json"}], "sourceSystem": {"code": 2, "name": "House floor actions"}, "text": "Referred to the Committee on Energy and Commerce, and in addition to the Committees on Oversight and Accountability, Ways and Means, and the Budget, for a period to be subsequently determined by the Speaker, in each case for consideration of such provisions as fall within the jurisdiction of the committee concerned.", "type": "IntroReferral"}, {"actionCode": "H11100", "actionDate": "2023-04-27", "committees": [{"name": "Ways and Means Committee", "systemCode": "hswm00", "url": "https://api.congress.gov/v3/committee/house/hswm00?format=json"}], "sourceSystem": {"code": 2, "name": "House floor actions"}, "text": "Referred to the Committee on Energy and Commerce, and in addition to the Committees on Oversight and Accountability, Ways and Means, and the Budget, for a period to be subsequently determined by the Speaker, in each case for consideration of such provisions as fall within the jurisdiction of the committee concerned.", "type": "IntroReferral"}, {"actionCode": "H11100", "actionDate": "2023-04-27", "committees": [{"name": "Oversight and Government Reform Committee", "systemCode": "hsgo00", "url": "https://api.congress.gov/v3/committee/house/hsgo00?format=json"}], "sourceSystem": {"code": 2, "name": "House floor actions"}, "text": "Referred to the Committee on Energy and Commerce, and in addition to the Committees on Oversight and Accountability, Ways and Means, and the Budget, for a period to be subsequently determined by the Speaker, in each case for consideration of such provisions as fall within the jurisdiction of the committee concerned.", "type": "IntroReferral"}, {"actionCode": "H11100", "actionDate": "2023-04-27", "committees": [{"name": "Energy and Commerce Committee", "systemCode": "hsif00", "url": "https://api.congress.gov/v3/committee/house/hsif00?format=json"}], "sourceSystem": {"code": 2, "name": "House floor actions"}, "text": "Referred to the Committee on Energy and Commerce, and in addition to the Committees on Oversight and Accountability, Ways and Means, and the Budget, for a period to be subsequently determined by the Speaker, in each case for consideration of such provisions as fall within the jurisdiction of the committee concerned.", "type": "IntroReferral"}, {"actionCode": "Intro-H", "actionDate": "2023-04-27", "sourceSystem": {"code": 9, "name": "Library of Congress"}, "text": "Introduced in House", "type": "IntroReferral"}, {"actionCode": "1000", "actionDate": "2023-04-27", "sourceSystem": {"code": 9, "name": "Library of Congress"}, "text": "Introduced in House", "type": "IntroReferral"}], "pagination": {"count": 8}, "request": {"billNumber": "2940", "billType": "hr", "billUrl": "https://api.congress.gov/v3/bill/118/hr/2940?format=json", "congress": "118", "contentType": "application/json", "format": "json"}}, "cosponsors": {"cosponsors": [{"bioguideId": "P000608", "district": 50, "firstName": "Scott", "fullName": "Rep. Peters, Scott H. [D-CA-50]", "isOriginalCosponsor": true, "lastName": "Peters", "middleName": "H.", "party": "D", "sponsorshipDate": "2023-04-27", "state": "CA", "url": "https://api.congress.gov/v3/member/P000608?format=json"}, {"bioguideId": "L000266", "district": 2, "firstName": "Jake", "fullName": "Rep. LaTurner, Jake [R-KS-2]", "isOriginalCosponsor": true, "lastName": "LaTurner", "party": "R", "sponsorshipDate": "2023-04-27", "state": "KS", "url": "https://api.congress.gov/v3/member/L000266?format=json"}, {"bioguideId": "L000593", "district": 49, "firstName": "Mike", "fullName": "Rep. Levin, Mike [D-CA-49]", "isOriginalCosponsor": true, "lastName": "Levin", "party": "D", "sponsorshipDate": "2023-04-27", "state": "CA", "url": "https://api.congress.gov/v3/member/L000593?format=json"}, {"bioguideId": "A000369", "district": 2, "firstName": "Mark", "fullName": "Rep. Amodei, Mark E. [R-NV-2]", "isOriginalCosponsor": false, "lastName": "Amodei", "middleName": "E.", "party": "R", "sponsorshipDate": "2023-04-28", "state": "NV", "url": "https://api.congress.gov/v3/member/A000369?format=json"}, {"bioguideId": "M000312", "district": 2, "firstName": "JAMES", "fullName": "Rep. McGovern, James P. [D-MA-2]", "isOriginalCosponsor": false, "lastName": "MCGOVERN", "middleName": "P.", "party": "D", "sponsorshipDate": "2023-05-02", "state": "MA", "url": "https://api.congress.gov/v3/member/M000312?format=json"}, {"bioguideId": "S000168", "district": 27, "firstName": "Maria", "fullName": "Rep. Salazar, Maria Elvira [R-FL-27]", "isOriginalCosponsor": false, "lastName": "Salazar", "middleName": "Elvira", "party": "R", "sponsorshipDate": "2023-05-10", "state": "FL", "url": "https://api.congress.gov/v3/member/S000168?format=json"}, {"bioguideId": "F000466", "district": 1, "firstName": "Brian", "fullName": "Rep. Fitzpatrick, Brian K. [R-PA-1]", "isOriginalCosponsor": false, "lastName": "Fitzpatrick", "middleName": "K.", "party": "R", "sponsorshipDate": "2023-05-10", "state": "PA", "url": "https://api.congress.gov/v3/member/F000466?format=json"}, {"bioguideId": "C001103", "district": 1, "firstName": "Earl", "fullName": "Rep. Carter, Earl L. \"Buddy\" [R-GA-1]", "isOriginalCosponsor": false, "lastName": "Carter", "middleName": "L. \"Buddy\"", "party": "R", "sponsorshipDate": "2023-05-10", "state": "GA", "url": "https://api.congress.gov/v3/member/C001103?format=json"}, {"bioguideId": "B001298", "district": 2, "firstName": "Don", "fullName": "Rep. Bacon, Don [R-NE-2]", "isOriginalCosponsor": false, "lastName": "Bacon", "party": "R", "sponsorshipDate": "2023-05-10", "state": "NE", "url": "https://api.congress.gov/v3/member/B001298?format=json"}, {"bioguideId": "S001189", "district": 8, "firstName": "Austin", "fullName": "Rep. Scott, Austin [R-GA-8]", "isOriginalCosponsor": false, "lastName": "Scott", "party": "R", "sponsorshipDate": "2023-05-10", "state": "GA", "url": "https://api.congress.gov/v3/member/S001189?format=json"}, {"bioguideId": "F000459", "district": 3, "firstName": "Charles", "fullName": "Rep. Fleischmann, Charles J. \"Chuck\" [R-TN-3]", "isOriginalCosponsor": false, "lastName": "Fleischmann", "middleName": "J. \"Chuck\"", "party": "R", "sponsorshipDate": "2023-05-10", "state": "TN", "url": "https://api.congress.gov/v3/member/F000459?format=json"}, {"bioguideId": "A000148", "district": 4, "firstName": "Jake", "fullName": "Rep. Auchincloss, Jake [D-MA-4]", "isOriginalCosponsor": false, "lastName": "Auchincloss", "party": "D", "sponsorshipDate": "2023-05-10", "state": "MA", "url": "https://api.congress.gov/v3/member/A000148?format=json"}, {"bioguideId": "C001067", "district": 9, "firstName": "Yvette", "fullName": "Rep. Clarke, Yvette D. [D-NY-9]", "isOriginalCosponsor": false, "lastName": "Clarke", "middleName": "D.", "party": "D", "sponsorshipDate": "2023-05-10", "state": "NY", "url": "https://api.congress.gov/v3/member/C001067?format=json"}, {"bioguideId": "R000305", "district": 2, "firstName": "Deborah", "fullName": "Rep. Ross, Deborah K. [D-NC-2]", "isOriginalCosponsor": false, "lastName": "Ross", "middleName": "K.", "party": "D", "sponsorshipDate": "2023-05-10", "state": "NC", "url": "https://api.congress.gov/v3/member/R000305?format=json"}, {"bioguideId": "P000613", "district": 19, "firstName": "Jimmy", "fullName": "Rep. Panetta, Jimmy [D-CA-19]", "isOriginalCosponsor": false, "lastName": "Panetta", "party": "D", "sponsorshipDate": "2023-05-10", "state": "CA", "url": "https://api.congress.gov/v3/member/P000613?format=json"}, {"bioguideId": "N000147", "district": 0, "firstName": "ELEANOR", "fullName": "Del. Norton, Eleanor Holmes [D-DC-At Large]", "isOriginalCosponsor": false, "lastName": "NORTON", "middleName": "HOLMES", "party": "D", "sponsorshipDate": "2023-05-10", "state": "DC", "url": "https://api.congress.gov/v3/member/N000147?format=json"}, {"bioguideId": "D000230", "district": 1, "firstName": "Donald", "fullName": "Rep. Davis, Donald G. [D-NC-1]", "isOriginalCosponsor": false, "lastName": "Davis", "middleName": "G.", "party": "D", "sponsorshipDate": "2023-05-10", "state": "NC", "url": "https://api.congress.gov/v3/member/D000230?format=json"}, {"bioguideId": "M001215", "district": 1, "firstName": "Mariannette", "fullName": "Rep. Miller-Meeks, Mariannette [R-IA-1]", "isOriginalCosponsor": false, "lastName": "Miller-Meeks", "party": "R", "sponsorshipDate": "2023-05-18", "state": "IA", "url": "https://api.congress.gov/v3/member/M001215?format=json"}, {"bioguideId": "K000376", "district": 16, "firstName": "Mike", "fullName": "Rep. Kelly, Mike [R-PA-16]", "isOriginalCosponsor": false, "lastName": "Kelly", "party": "R", "sponsorshipDate": "2023-05-18", "state": "PA", "url": "https://api.congress.gov/v3/member/K000376?format=json"}, {"bioguideId": "D000615", "district": 3, "firstName": "Jeff", "fullName": "Rep. Duncan, Jeff [R-SC-3]", "isOriginalCosponsor": false, "lastName": "Duncan", "party": "R", "sponsorshipDate": "2023-05-18", "state": "SC", "url": "https://api.congress.gov/v3/member/D000615?format=json"}], "pagination": {"count": 62, "countIncludingWithdrawnCosponsors": 62, "next": "https://api.congress.gov/v3/bill/118/hr/2940/cosponsors?offset=20&limit=20&format=json"}, "request": {"billNumber": "2940", "billType": "hr", "billUrl": "https://api.congress.gov/v3/bill/118/hr/2940?format=json", "congress": "118", "contentType": "application/json", "format": "json"}}, "summaries": {"pagination": {"count": 1}, "request": {"billNumber": "2940", "billType": "hr", "billUrl": "https://api.congress.gov/v3/bill/118/hr/2940?format=json", "congress": "118", "contentType": "application/json", "format": "json"}, "summaries": [{"actionDate": "2023-04-27", "actionDesc": "Introduced in House", "text": " <p><b>Pioneering Antimicrobial Subscriptions To End Upsurging Resistance Act of 2023 or the PASTEUR Act</b><strong> of </strong><b>2023</b></p> <p>This bill authorizes the Department of Health and Human Services (HHS) to enter into subscription contracts for critical-need antimicrobial drugs, provides $6 billion in appropriations for activities under the bill, and contains other related provisions. </p> <p>A manufacturer of a Food and Drug Administration-approved antimicrobial drug may apply to HHS to have the drug designated as a critical-need antimicrobial, and HHS may enter into a subscription contract for such a critical-need antimicrobial. The bill imposes certain requirements related to such contracts, including a mechanism to lower payments under the contract in certain instances to limit the manufacturer's revenue from the drug. </p> <p>Furthermore, HHS and the Centers for Disease Control and Prevention (CDC) shall award grants to support efforts to encourage the appropriate use of antimicrobial drugs and efforts to combat antimicrobial resistance. The CDC shall also track and assess data relating to antibacterial resistance and human antibiotic use and make such data publicly available.</p> <p>HHS shall also establish a Committee on Critical Need Antimicrobials. The committee shall develop a list of prioritized infections for which new antimicrobial drug development is needed, among other duties.</p> <p>Within six years of the bill's enactment, the Government Accountability Office shall report to Congress a study on the bill's effectiveness in developing priority antimicrobial drugs.</p>", "updateDate": "2024-01-09T20:48:54Z", "versionCode": "00"}]}, "titles": {"pagination": {"count": 4}, "request": {"billNumber": "2940", "billType": "hr", "billUrl": "https://api.congress.gov/v3/bill/118/hr/2940?format=json", "congress": "118", "contentType": "application/json", "format": "json"}, "titles": [{"title": "PASTEUR Act", "titleType": "Display Title", "titleTypeCode": 45, "updateDate": "2024-07-24T15:22:26Z"}, {"billTextVersionCode": "IH", "billTextVersionName": "Introduced in House", "title": "PASTEUR Act", "titleType": "Short Title(s) as Introduced", "titleTypeCode": 101, "updateDate": "2024-05-24T13:40:26Z"}, {"billTextVersionCode": "IH", "billTextVersionName": "Introduced in House", "title": "Pioneering Antimicrobial Subscriptions To End Upsurging Resistance Act of 2023", "titleType": "Short Title(s) as Introduced", "titleTypeCode": 101, "updateDate": "2024-05-24T13:40:26Z"}, {"billTextVersionCode": "IH", "billTextVersionName": "Introduced in House", "title": "To amend title III of the Public Health Service Act to establish a program to develop antimicrobial innovations targeting the most challenging pathogens and most threatening infections, and for other purposes.", "titleType": "Official Title as Introduced", "titleTypeCode": 6, "updateDate": "2024-03-18T20:41:37Z"}]}, "meta": {"bill": {"actions": {"count": 8, "url": "https://api.congress.gov/v3/bill/118/hr/2940/actions?format=json"}, "committees": {"count": 4, "url": "https://api.congress.gov/v3/bill/118/hr/2940/committees?format=json"}, "congress": 118, "constitutionalAuthorityStatementText": "<pre>\n[Congressional Record Volume 169, Number 71 (Thursday, April 27, 2023)]\n[House]\nFrom the Congressional Record Online through the Government Publishing Office [<a href=\"https://www.gpo.gov\">www.gpo.gov</a>]\nBy Mr. FERGUSON:\nH.R. 2940.\nCongress has the power to enact this legislation pursuant\nto the following:\nClause 1 of section 8 of article I of the Constitution, to\n``provide for the common defense and general welfare of the\nUnited States.''\nThe single subject of this legislation is:\nAntibiotics\n[Page H2086]\n</pre>", "cosponsors": {"count": 62, "countIncludingWithdrawnCosponsors": 62, "url": "https://api.congress.gov/v3/bill/118/hr/2940/cosponsors?format=json"}, "introducedDate": "2023-04-27", "latestAction": {"actionDate": "2024-12-17", "text": "Referred to the Subcommittee on Health."}, "number": "2940", "originChamber": "House", "originChamberCode": "H", "policyArea": {"name": "Health"}, "relatedBills": {"count": 1, "url": "https://api.congress.gov/v3/bill/118/hr/2940/relatedbills?format=json"}, "sponsors": [{"bioguideId": "F000465", "district": 3, "firstName": "A.", "fullName": "Rep. Ferguson, A. Drew, IV [R-GA-3]", "isByRequest": "N", "lastName": "Ferguson", "middleName": "Drew", "party": "R", "state": "GA", "url": "https://api.congress.gov/v3/member/F000465?format=json"}], "subjects": {"count": 16, "url": "https://api.congress.gov/v3/bill/118/hr/2940/subjects?format=json"}, "summaries": {"count": 1, "url": "https://api.congress.gov/v3/bill/118/hr/2940/summaries?format=json"}, "textVersions": {"count": 1, "url": "https://api.congress.gov/v3/bill/118/hr/2940/text?format=json"}, "title": "PASTEUR Act", "titles": {"count": 4, "url": "https://api.congress.gov/v3/bill/118/hr/2940/titles?format=json"}, "type": "HR", "updateDate": "2025-02-04T16:54:13Z", "updateDateIncludingText": "2025-02-04T16:54:13Z"}, "request": {"billNumber": "2940", "billType": "hr", "congress": "118", "contentType": "application/json", "format": "json"}}}