{"actions": {"actions": [{"actionCode": "H19000", "actionDate": "2023-07-26", "committees": [{"name": "Foreign Affairs Committee", "systemCode": "hsfa00", "url": "https://api.congress.gov/v3/committee/house/hsfa00?format=json"}], "sourceSystem": {"code": 1, "name": "House committee actions"}, "text": "Ordered to be Reported by Voice Vote.", "type": "Committee"}, {"actionCode": "H15000-B", "actionDate": "2023-07-26", "committees": [{"name": "Foreign Affairs Committee", "systemCode": "hsfa00", "url": "https://api.congress.gov/v3/committee/house/hsfa00?format=json"}], "sourceSystem": {"code": 1, "name": "House committee actions"}, "text": "Committee Consideration and Mark-up Session Held", "type": "Committee"}, {"actionCode": "H11100", "actionDate": "2023-03-24", "committees": [{"name": "Foreign Affairs Committee", "systemCode": "hsfa00", "url": "https://api.congress.gov/v3/committee/house/hsfa00?format=json"}], "sourceSystem": {"code": 2, "name": "House floor actions"}, "text": "Referred to the House Committee on Foreign Affairs.", "type": "IntroReferral"}, {"actionCode": "Intro-H", "actionDate": "2023-03-24", "sourceSystem": {"code": 9, "name": "Library of Congress"}, "text": "Introduced in House", "type": "IntroReferral"}, {"actionCode": "1000", "actionDate": "2023-03-24", "sourceSystem": {"code": 9, "name": "Library of Congress"}, "text": "Introduced in House", "type": "IntroReferral"}], "pagination": {"count": 5}, "request": {"billNumber": "1776", "billType": "hr", "billUrl": "https://api.congress.gov/v3/bill/118/hr/1776?format=json", "congress": "118", "contentType": "application/json", "format": "json"}}, "cosponsors": {"cosponsors": [{"bioguideId": "S000168", "district": 27, "firstName": "Maria", "fullName": "Rep. Salazar, Maria Elvira [R-FL-27]", "isOriginalCosponsor": true, "lastName": "Salazar", "middleName": "Elvira", "party": "R", "sponsorshipDate": "2023-03-24", "state": "FL", "url": "https://api.congress.gov/v3/member/S000168?format=json"}, {"bioguideId": "S000344", "district": 32, "firstName": "BRAD", "fullName": "Rep. Sherman, Brad [D-CA-32]", "isOriginalCosponsor": true, "lastName": "SHERMAN", "party": "D", "sponsorshipDate": "2023-03-24", "state": "CA", "url": "https://api.congress.gov/v3/member/S000344?format=json"}, {"bioguideId": "F000466", "district": 1, "firstName": "Brian", "fullName": "Rep. Fitzpatrick, Brian K. [R-PA-1]", "isOriginalCosponsor": true, "lastName": "Fitzpatrick", "middleName": "K.", "party": "R", "sponsorshipDate": "2023-03-24", "state": "PA", "url": "https://api.congress.gov/v3/member/F000466?format=json"}, {"bioguideId": "R000305", "district": 2, "firstName": "Deborah", "fullName": "Rep. Ross, Deborah K. [D-NC-2]", "isOriginalCosponsor": false, "lastName": "Ross", "middleName": "K.", "party": "D", "sponsorshipDate": "2023-04-06", "state": "NC", "url": "https://api.congress.gov/v3/member/R000305?format=json"}, {"bioguideId": "C001130", "district": 30, "firstName": "Jasmine", "fullName": "Rep. Crockett, Jasmine [D-TX-30]", "isOriginalCosponsor": false, "lastName": "Crockett", "party": "D", "sponsorshipDate": "2023-04-06", "state": "TX", "url": "https://api.congress.gov/v3/member/C001130?format=json"}, {"bioguideId": "C001068", "district": 9, "firstName": "Steve", "fullName": "Rep. Cohen, Steve [D-TN-9]", "isOriginalCosponsor": false, "lastName": "Cohen", "party": "D", "sponsorshipDate": "2023-04-06", "state": "TN", "url": "https://api.congress.gov/v3/member/C001068?format=json"}, {"bioguideId": "T000483", "district": 6, "firstName": "David", "fullName": "Rep. Trone, David J. [D-MD-6]", "isOriginalCosponsor": false, "lastName": "Trone", "middleName": "J.", "party": "D", "sponsorshipDate": "2023-04-24", "state": "MD", "url": "https://api.congress.gov/v3/member/T000483?format=json"}, {"bioguideId": "E000297", "district": 13, "firstName": "Adriano", "fullName": "Rep. Espaillat, Adriano [D-NY-13]", "isOriginalCosponsor": false, "lastName": "Espaillat", "party": "D", "sponsorshipDate": "2023-04-24", "state": "NY", "url": "https://api.congress.gov/v3/member/E000297?format=json"}, {"bioguideId": "C001127", "district": 20, "firstName": "Sheila", "fullName": "Rep. Cherfilus-McCormick, Sheila [D-FL-20]", "isOriginalCosponsor": false, "lastName": "Cherfilus-McCormick", "party": "D", "sponsorshipDate": "2023-04-25", "state": "FL", "url": "https://api.congress.gov/v3/member/C001127?format=json"}, {"bioguideId": "H001038", "district": 26, "firstName": "Brian", "fullName": "Rep. Higgins, Brian [D-NY-26]", "isOriginalCosponsor": false, "lastName": "Higgins", "party": "D", "sponsorshipDate": "2023-05-09", "state": "NY", "url": "https://api.congress.gov/v3/member/H001038?format=json"}, {"bioguideId": "N000147", "district": 0, "firstName": "ELEANOR", "fullName": "Del. Norton, Eleanor Holmes [D-DC-At Large]", "isOriginalCosponsor": false, "lastName": "NORTON", "middleName": "HOLMES", "party": "D", "sponsorshipDate": "2023-05-09", "state": "DC", "url": "https://api.congress.gov/v3/member/N000147?format=json"}, {"bioguideId": "K000394", "district": 3, "firstName": "Andy", "fullName": "Rep. Kim, Andy [D-NJ-3]", "isOriginalCosponsor": false, "lastName": "Kim", "party": "D", "sponsorshipDate": "2023-05-09", "state": "NJ", "url": "https://api.congress.gov/v3/member/K000394?format=json"}, {"bioguideId": "M000194", "district": 1, "firstName": "Nancy", "fullName": "Rep. Mace, Nancy [R-SC-1]", "isOriginalCosponsor": false, "lastName": "Mace", "party": "R", "sponsorshipDate": "2023-05-09", "state": "SC", "url": "https://api.congress.gov/v3/member/M000194?format=json"}, {"bioguideId": "W000795", "district": 2, "firstName": "Joe", "fullName": "Rep. Wilson, Joe [R-SC-2]", "isOriginalCosponsor": false, "lastName": "Wilson", "party": "R", "sponsorshipDate": "2023-05-09", "state": "SC", "url": "https://api.congress.gov/v3/member/W000795?format=json"}, {"bioguideId": "F000462", "district": 22, "firstName": "Lois", "fullName": "Rep. Frankel, Lois [D-FL-22]", "isOriginalCosponsor": false, "lastName": "Frankel", "party": "D", "sponsorshipDate": "2023-05-09", "state": "FL", "url": "https://api.congress.gov/v3/member/F000462?format=json"}, {"bioguideId": "M000317", "district": 11, "firstName": "Nicole", "fullName": "Rep. Malliotakis, Nicole [R-NY-11]", "isOriginalCosponsor": false, "lastName": "Malliotakis", "party": "R", "sponsorshipDate": "2023-05-11", "state": "NY", "url": "https://api.congress.gov/v3/member/M000317?format=json"}, {"bioguideId": "S001193", "district": 14, "firstName": "Eric", "fullName": "Rep. Swalwell, Eric [D-CA-14]", "isOriginalCosponsor": false, "lastName": "Swalwell", "party": "D", "sponsorshipDate": "2023-05-11", "state": "CA", "url": "https://api.congress.gov/v3/member/S001193?format=json"}, {"bioguideId": "A000376", "district": 32, "firstName": "Colin", "fullName": "Rep. Allred, Colin Z. [D-TX-32]", "isOriginalCosponsor": false, "lastName": "Allred", "middleName": "Z.", "party": "D", "sponsorshipDate": "2023-05-15", "state": "TX", "url": "https://api.congress.gov/v3/member/A000376?format=json"}, {"bioguideId": "W000822", "district": 12, "firstName": "Bonnie", "fullName": "Rep. Watson Coleman, Bonnie [D-NJ-12]", "isOriginalCosponsor": false, "lastName": "Watson Coleman", "party": "D", "sponsorshipDate": "2023-05-15", "state": "NJ", "url": "https://api.congress.gov/v3/member/W000822?format=json"}, {"bioguideId": "T000487", "district": 2, "firstName": "Jill", "fullName": "Rep. Tokuda, Jill N. [D-HI-2]", "isOriginalCosponsor": false, "lastName": "Tokuda", "middleName": "N.", "party": "D", "sponsorshipDate": "2023-05-15", "state": "HI", "url": "https://api.congress.gov/v3/member/T000487?format=json"}], "pagination": {"count": 95, "countIncludingWithdrawnCosponsors": 95, "next": "https://api.congress.gov/v3/bill/118/hr/1776/cosponsors?offset=20&limit=20&format=json"}, "request": {"billNumber": "1776", "billType": "hr", "billUrl": "https://api.congress.gov/v3/bill/118/hr/1776?format=json", "congress": "118", "contentType": "application/json", "format": "json"}}, "summaries": {"pagination": {"count": 1}, "request": {"billNumber": "1776", "billType": "hr", "billUrl": "https://api.congress.gov/v3/bill/118/hr/1776?format=json", "congress": "118", "contentType": "application/json", "format": "json"}, "summaries": [{"actionDate": "2023-03-24", "actionDesc": "Introduced in House", "text": " <p><strong>End Tuberculosis Now Act of 2023 </strong></p> <p>This bill authorizes actions, including the provision of international assistance, to combat tuberculosis. </p> <p>The President may provide international assistance to prevent, treat, control, and eliminate tuberculosis. The President must also establish goals for U.S. efforts to detect, cure, and prevent all forms of tuberculosis globally by updating the National Action Plan for Combating Multidrug-Resistant Tuberculosis. </p> <p>The Government Accountability Office must periodically report to Congress on the impact of efforts to combat tuberculosis that are supported by U.S. bilateral assistance.</p>", "updateDate": "2023-06-09T13:05:14Z", "versionCode": "00"}]}, "titles": {"pagination": {"count": 3}, "request": {"billNumber": "1776", "billType": "hr", "billUrl": "https://api.congress.gov/v3/bill/118/hr/1776?format=json", "congress": "118", "contentType": "application/json", "format": "json"}, "titles": [{"title": "End Tuberculosis Now Act of 2023", "titleType": "Display Title", "titleTypeCode": 45, "updateDate": "2024-06-11T15:45:19Z"}, {"billTextVersionCode": "IH", "billTextVersionName": "Introduced in House", "title": "End Tuberculosis Now Act of 2023", "titleType": "Short Title(s) as Introduced", "titleTypeCode": 101, "updateDate": "2024-05-24T13:41:29Z"}, {"billTextVersionCode": "IH", "billTextVersionName": "Introduced in House", "title": "To prevent, treat, and cure tuberculosis globally.", "titleType": "Official Title as Introduced", "titleTypeCode": 6, "updateDate": "2024-03-18T20:30:32Z"}]}, "meta": {"bill": {"actions": {"count": 5, "url": "https://api.congress.gov/v3/bill/118/hr/1776/actions?format=json"}, "cboCostEstimates": [{"description": "As ordered reported by the House Committee on Foreign Affairs on July 26, 2023\n", "pubDate": "2023-10-05T14:12:00Z", "title": "H.R. 1776, End Tuberculosis Now Act of 2023", "url": "https://www.cbo.gov/publication/59572"}], "committees": {"count": 1, "url": "https://api.congress.gov/v3/bill/118/hr/1776/committees?format=json"}, "congress": 118, "constitutionalAuthorityStatementText": "<pre>\n[Congressional Record Volume 169, Number 54 (Friday, March 24, 2023)]\n[House]\nFrom the Congressional Record Online through the Government Publishing Office [<a href=\"https://www.gpo.gov\">www.gpo.gov</a>]\nBy Mr. BERA:\nH.R. 1776.\nCongress has the power to enact this legislation pursuant\nto the following:\nClause 18 of section 8 of article I of the Constitution.\nThe single subject of this legislation is:\nGlobal Health\n[Page H1438]\n</pre>", "cosponsors": {"count": 95, "countIncludingWithdrawnCosponsors": 95, "url": "https://api.congress.gov/v3/bill/118/hr/1776/cosponsors?format=json"}, "introducedDate": "2023-03-24", "latestAction": {"actionDate": "2023-07-26", "text": "Ordered to be Reported by Voice Vote."}, "number": "1776", "originChamber": "House", "originChamberCode": "H", "policyArea": {"name": "International Affairs"}, "relatedBills": {"count": 1, "url": "https://api.congress.gov/v3/bill/118/hr/1776/relatedbills?format=json"}, "sponsors": [{"bioguideId": "B001287", "district": 6, "firstName": "Ami", "fullName": "Rep. Bera, Ami [D-CA-6]", "isByRequest": "N", "lastName": "Bera", "party": "D", "state": "CA", "url": "https://api.congress.gov/v3/member/B001287?format=json"}], "subjects": {"count": 19, "url": "https://api.congress.gov/v3/bill/118/hr/1776/subjects?format=json"}, "summaries": {"count": 1, "url": "https://api.congress.gov/v3/bill/118/hr/1776/summaries?format=json"}, "textVersions": {"count": 1, "url": "https://api.congress.gov/v3/bill/118/hr/1776/text?format=json"}, "title": "End Tuberculosis Now Act of 2023", "titles": {"count": 3, "url": "https://api.congress.gov/v3/bill/118/hr/1776/titles?format=json"}, "type": "HR", "updateDate": "2024-11-19T09:05:31Z", "updateDateIncludingText": "2024-11-19T09:05:31Z"}, "request": {"billNumber": "1776", "billType": "hr", "congress": "118", "contentType": "application/json", "format": "json"}}}